<?xml version="1.0" encoding="UTF-8" standalone="no"?>
<!-- Created with Inkscape (http://www.inkscape.org/) -->

<svg
   xmlns:dc="http://purl.org/dc/elements/1.1/"
   xmlns:cc="http://creativecommons.org/ns#"
   xmlns:rdf="http://www.w3.org/1999/02/22-rdf-syntax-ns#"
   xmlns:svg="http://www.w3.org/2000/svg"
   xmlns="http://www.w3.org/2000/svg"
   xmlns:sodipodi="http://sodipodi.sourceforge.net/DTD/sodipodi-0.dtd"
   xmlns:inkscape="http://www.inkscape.org/namespaces/inkscape"
   width="1.1361121mm"
   height="0.89403832mm"
   viewBox="0 0 1.1361121 0.89403832"
   version="1.1"
   id="svg3814"
   inkscape:version="0.92.4 (unknown)"
   sodipodi:docname="அம்.svg">
  <defs
     id="defs3808" />
  <sodipodi:namedview
     id="base"
     pagecolor="#ffffff"
     bordercolor="#666666"
     borderopacity="1.0"
     inkscape:pageopacity="0.0"
     inkscape:pageshadow="2"
     inkscape:zoom="246.81548"
     inkscape:cx="2.1469985"
     inkscape:cy="1.6895135"
     inkscape:document-units="mm"
     inkscape:current-layer="layer1"
     showgrid="false"
     fit-margin-top="0"
     fit-margin-left="0"
     fit-margin-right="0"
     fit-margin-bottom="0"
     inkscape:window-width="1920"
     inkscape:window-height="1017"
     inkscape:window-x="0"
     inkscape:window-y="30"
     inkscape:window-maximized="1" />
  <metadata
     id="metadata3811">
    <rdf:RDF>
      <cc:Work
         rdf:about="">
        <dc:format>image/svg+xml</dc:format>
        <dc:type
           rdf:resource="http://purl.org/dc/dcmitype/StillImage" />
        <dc:title></dc:title>
      </cc:Work>
    </rdf:RDF>
  </metadata>
  <g
     inkscape:label="Layer 1"
     inkscape:groupmode="layer"
     id="layer1"
     transform="translate(-324.49146,-100.00536)">
    <g
       transform="matrix(0.35277777,0,0,0.35277777,107.98616,73.235866)"
       id="g1629"
       style="fill:#211e1e;fill-opacity:1">
      <g
         id="use1627"
         transform="matrix(0.26458333,0,0,0.26458333,613.71997,77.419998)">
        <path
           inkscape:connector-curvature="0"
           id="path3826"
           d="m 12.15625,-1.203125 v -4.03125 h -0.890625 v 4.0625 c 0,0.828125 -0.828125,1.03125 -1.84375,1.28125 V -5.53125 H 8.46875 V -3.375 H 7.78125 C 7.65625,-4.71875 6.421875,-5.96875 4.796875,-5.796875 v 0.765625 c 0.921875,-0.1875 1.78125,0.71875 2,1.609375 H 1.6875 c -0.921875,0 -1.703125,0.6875 -1.703125,1.625 0,1.75 1.8125,2.796875 3.625,2.796875 2.34375,0 4.09375,-1.25 4.171875,-3.453125 h 0.6875 v 2.8125 c -1.40625,0.40625 -2.8125,1.046875 -2.8125,2.15625 0,0.78125 0.609375,1.25 1.34375,1.25 1.171875,0 2.421875,-0.8125 2.421875,-2.25 v -0.4375 c 1.375,-0.34375 2.734375,-0.671875 2.734375,-2.28125 z m -5.375,-1.25 C 6.65625,-0.875 5.265625,0.15625 3.703125,0.15625 c -1.28125,0 -2.71875,-0.796875 -2.71875,-1.8125 0,-0.34375 0.109375,-0.796875 0.59375,-0.796875 z m 1.6875,4 c 0,0.71875 -0.453125,1.25 -1.265625,1.25 -0.3125,0 -0.46875,-0.109375 -0.46875,-0.328125 0,-0.5 0.765625,-0.84375 1.734375,-1.125 z m 0,0"
           style="stroke:none" />
      </g>
    </g>
  </g>
</svg>
