<?xml version="1.0" encoding="UTF-8" standalone="no"?>
<!-- Created with Inkscape (http://www.inkscape.org/) -->

<svg
   xmlns:dc="http://purl.org/dc/elements/1.1/"
   xmlns:cc="http://creativecommons.org/ns#"
   xmlns:rdf="http://www.w3.org/1999/02/22-rdf-syntax-ns#"
   xmlns:svg="http://www.w3.org/2000/svg"
   xmlns="http://www.w3.org/2000/svg"
   xmlns:sodipodi="http://sodipodi.sourceforge.net/DTD/sodipodi-0.dtd"
   xmlns:inkscape="http://www.inkscape.org/namespaces/inkscape"
   width="1.1288199mm"
   height="0.90859795mm"
   viewBox="0 0 1.1288199 0.90859795"
   version="1.1"
   id="svg1167"
   inkscape:version="0.92.4 (unknown)"
   sodipodi:docname="க்கும்.svg">
  <defs
     id="defs1161" />
  <sodipodi:namedview
     id="base"
     pagecolor="#ffffff"
     bordercolor="#666666"
     borderopacity="1.0"
     inkscape:pageopacity="0.0"
     inkscape:pageshadow="2"
     inkscape:zoom="249.26683"
     inkscape:cx="2.1332046"
     inkscape:cy="1.717049"
     inkscape:document-units="mm"
     inkscape:current-layer="layer1"
     showgrid="false"
     fit-margin-top="0"
     fit-margin-left="0"
     fit-margin-right="0"
     fit-margin-bottom="0"
     inkscape:window-width="1920"
     inkscape:window-height="1017"
     inkscape:window-x="0"
     inkscape:window-y="30"
     inkscape:window-maximized="1" />
  <metadata
     id="metadata1164">
    <rdf:RDF>
      <cc:Work
         rdf:about="">
        <dc:format>image/svg+xml</dc:format>
        <dc:type
           rdf:resource="http://purl.org/dc/dcmitype/StillImage" />
        <dc:title></dc:title>
      </cc:Work>
    </rdf:RDF>
  </metadata>
  <g
     inkscape:label="Layer 1"
     inkscape:groupmode="layer"
     id="layer1"
     transform="translate(83.719168,-231.5338)">
    <g
       transform="matrix(0.35277777,0,0,0.35277777,-300.22593,187.16512)"
       id="g1665"
       style="fill:#211e1e;fill-opacity:1">
      <g
         id="use1663"
         transform="matrix(0.26458333,0,0,0.26458333,613.71997,127.82)">
        <path
           inkscape:connector-curvature="0"
           id="path1179"
           d="m 12.09375,-5.34375 c 0,-1.078125 -0.953125,-1.921875 -2.03125,-1.921875 H 9.609375 v 0.921875 h 0.546875 c 0.40625,0 1.046875,0.640625 1.046875,1.15625 0,0.40625 -0.34375,0.765625 -0.625,0.765625 C 9.484375,-4.421875 9.140625,-7.75 5.3125,-7.75 2.46875,-7.75 0,-6.390625 0,-2.59375 c 0,2.734375 1.84375,4.578125 4.78125,4.578125 2.28125,0 4.078125,-1.515625 4.078125,-4.09375 0,-1.625 -0.703125,-3.40625 -2.28125,-3.40625 -0.609375,0 -1.078125,-0.03125 -1.546875,0.5625 -0.390625,-0.390625 -0.75,-0.53125 -1.28125,-0.53125 -0.828125,0 -1.578125,0.453125 -1.578125,1.25 v 4.28125 h 0.96875 v -3.9375 c 0,-0.515625 0.21875,-0.625 0.5625,-0.625 0.375,0 0.46875,0.4375 0.46875,0.8125 V 0 H 5.1875 v -3.703125 c 0,-0.609375 0.5625,-0.96875 1.15625,-0.96875 1.40625,0 1.59375,1.484375 1.59375,2.75 0,1.859375 -1.40625,3.0625 -3.265625,3.0625 -2.3125,0 -3.734375,-1.34375 -3.734375,-3.828125 0,-2.8125 1.65625,-4.25 4.21875,-4.25 3.734375,0 3.4375,3.421875 5.390625,3.421875 0.9375,0 1.546875,-0.734375 1.546875,-1.828125 z m 0,0"
           style="stroke:none" />
      </g>
    </g>
  </g>
</svg>
