<?xml version="1.0" encoding="UTF-8" standalone="no"?>
<!-- Created with Inkscape (http://www.inkscape.org/) -->

<svg
   xmlns:dc="http://purl.org/dc/elements/1.1/"
   xmlns:cc="http://creativecommons.org/ns#"
   xmlns:rdf="http://www.w3.org/1999/02/22-rdf-syntax-ns#"
   xmlns:svg="http://www.w3.org/2000/svg"
   xmlns="http://www.w3.org/2000/svg"
   xmlns:sodipodi="http://sodipodi.sourceforge.net/DTD/sodipodi-0.dtd"
   xmlns:inkscape="http://www.inkscape.org/namespaces/inkscape"
   width="36.891075mm"
   height="33.234688mm"
   viewBox="0 0 36.891075 33.234688"
   version="1.1"
   id="svg5518"
   inkscape:version="0.92.3 (2405546, 2018-03-11)"
   sodipodi:docname="5.svg">
  <defs
     id="defs5512" />
  <sodipodi:namedview
     id="base"
     pagecolor="#ffffff"
     bordercolor="#666666"
     borderopacity="1.0"
     inkscape:pageopacity="0.0"
     inkscape:pageshadow="2"
     inkscape:zoom="0.35"
     inkscape:cx="575.42971"
     inkscape:cy="-577.19428"
     inkscape:document-units="mm"
     inkscape:current-layer="layer1"
     showgrid="false"
     fit-margin-top="0"
     fit-margin-left="0"
     fit-margin-right="0"
     fit-margin-bottom="0"
     inkscape:window-width="1366"
     inkscape:window-height="705"
     inkscape:window-x="0"
     inkscape:window-y="30"
     inkscape:window-maximized="1" />
  <metadata
     id="metadata5515">
    <rdf:RDF>
      <cc:Work
         rdf:about="">
        <dc:format>image/svg+xml</dc:format>
        <dc:type
           rdf:resource="http://purl.org/dc/dcmitype/StillImage" />
        <dc:title></dc:title>
      </cc:Work>
    </rdf:RDF>
  </metadata>
  <g
     inkscape:label="Layer 1"
     inkscape:groupmode="layer"
     id="layer1"
     transform="translate(46.415776,37.117342)">
    <path
       style="fill:none;stroke:#000000;stroke-width:0.26458332px;stroke-linecap:butt;stroke-linejoin:miter;stroke-opacity:1"
       d="m -37.596738,-9.7937818 -0.416953,-20.2221822 18.901835,-0.06949 0.138986,3.266125 h -4.447493 l 0.138984,4.794951 c 0,0 2.293237,-1.667809 4.377999,-1.181365 2.084761,0.486444 4.655968,1.111873 5.837333,5.003427 1.181365,3.891554 -1.250857,7.505138 -3.127142,9.4509152 -1.876285,1.945778 -6.04581,4.516983 -12.925521,4.725458 -6.879711,0.208476 -11.25771,-2.571205 -13.9679,-5.628854 -2.710189,-3.0576482 -3.196633,-10.7017732 -3.196633,-10.7017732 0,0 0.34746,-6.045807 2.988157,-8.825488 2.640698,-2.779681 2.849174,-4.44749 8.269553,-6.393267 5.420379,-1.945777 10.56279,-1.945777 15.705202,0.416952 5.14241,2.362729 6.115298,4.725458 7.435649,7.227172 1.320347,2.501713 1.737299,5.14241 1.9457746,7.157679 0.208478,2.015269 0.277968,4.377999 0.277968,4.377999 h -2.6406976 c 0,0 0.06949,-3.335618 -0.69492,-6.045808 -0.76441,-2.710189 -4.030538,-8.617012 -5.559361,-9.033964 -1.528828,-0.416952 -2.918668,-2.640698 -7.922094,-2.36273 -5.003427,0.277969 -8.269553,1.042381 -8.269553,1.042381 0,0 -3.196634,1.389841 -4.794951,3.196634 -1.598317,1.806793 -3.196633,6.949203 -3.196633,6.949203 0,0 -0.555937,4.308506 0.486444,7.15768 1.04238,2.849174 1.737301,5.350886 5.072919,7.0881882 3.335618,1.737299 8.964473,1.945777 11.535678,1.181364 2.571206,-0.764413 5.698349,-1.181364 7.366158,-3.6830782 1.667809,-2.501713 2.43222,-5.350886 1.320348,-7.296663 -1.111872,-1.945777 -2.501712,-2.849174 -4.169523,-1.945777 -1.667809,0.903396 -2.084761,1.459332 -2.084761,1.459332 l 0.138984,8.7559962 -3.75257,0.06949 -0.347461,-17.1645322 h -7.296663 l 0.416952,17.0950402 z"
       id="path5501"
       inkscape:connector-curvature="0" />
  </g>
</svg>
