<?xml version="1.0" standalone="no"?>
<!DOCTYPE svg PUBLIC "-//W3C//DTD SVG 1.1//EN" "http://www.w3.org/Graphics/SVG/1.1/DTD/svg11.dtd" >
<svg xmlns="http://www.w3.org/2000/svg" xmlns:xlink="http://www.w3.org/1999/xlink" version="1.1" viewBox="0 -205 1390 1024">
  <g transform="matrix(1 0 0 -1 0 819)">
   <path fill="currentColor"
d="M440.072 389.189h193.521v262.742h-193.521v-262.742zM438.072 35.1191c72.7202 0 195.521 44.0125 195.521 175.542v102.38c-50.4815 5.88468 -94.2325 8.77593 -132.867 8.7825c-157.03 0.0267163 -220.965 -48.1144 -220.965 -143.887
c0 -87.9797 81.2802 -142.817 158.311 -142.817zM749.703 312.931h-48.5059v-102.27c0 -139.255 -140.613 -246.521 -263.125 -246.521c-126.685 0 -233.246 78.1064 -233.246 213.797c0 108.026 67.1224 196.664 166.564 211.12v327.249v1h1h490.336h1v-1v-63.374v-1h-1
h-161.529v-262.742c90.1632 -0.0481709 223.126 -5.31552 223.889 25.9158v211.932v1h1h65.6055h1v-1l0.00063712 -208.496c1.33858 -3.40852 21.2099 -51.9992 62.0013 -51.9992c54.6668 0 63.8652 50.3066 63.9531 50.7916v209.704v1h1h64.5273h1v-1v-661.168v-1h-1
h-64.5273h-1v1v363.195c-6.9768 -5.42486 -33.8265 -24.7664 -63.9531 -24.7664c-43.6574 0 -89.8041 39.0057 -95.7523 44.176c-44.2079 -41.8681 -117.092 -35.5432 -209.238 -35.5432z" />
  </g>

</svg>
