<?xml version="1.0" encoding="UTF-8" standalone="no"?>
<!-- Created with Inkscape (http://www.inkscape.org/) -->

<svg
   xmlns:dc="http://purl.org/dc/elements/1.1/"
   xmlns:cc="http://creativecommons.org/ns#"
   xmlns:rdf="http://www.w3.org/1999/02/22-rdf-syntax-ns#"
   xmlns:svg="http://www.w3.org/2000/svg"
   xmlns="http://www.w3.org/2000/svg"
   xmlns:sodipodi="http://sodipodi.sourceforge.net/DTD/sodipodi-0.dtd"
   xmlns:inkscape="http://www.inkscape.org/namespaces/inkscape"
   width="1.3607198mm"
   height="0.7510882mm"
   viewBox="0 0 1.3607198 0.7510882"
   version="1.1"
   id="svg1657"
   inkscape:version="0.92.4 (unknown)"
   sodipodi:docname="2 மரக்கால்.svg">
  <defs
     id="defs1651" />
  <sodipodi:namedview
     id="base"
     pagecolor="#ffffff"
     bordercolor="#666666"
     borderopacity="1.0"
     inkscape:pageopacity="0.0"
     inkscape:pageshadow="2"
     inkscape:zoom="256"
     inkscape:cx="2.5714296"
     inkscape:cy="1.4193788"
     inkscape:document-units="mm"
     inkscape:current-layer="layer1"
     showgrid="false"
     fit-margin-top="0"
     fit-margin-left="0"
     fit-margin-right="0"
     fit-margin-bottom="0"
     inkscape:window-width="1920"
     inkscape:window-height="1017"
     inkscape:window-x="0"
     inkscape:window-y="30"
     inkscape:window-maximized="1" />
  <metadata
     id="metadata1654">
    <rdf:RDF>
      <cc:Work
         rdf:about="">
        <dc:format>image/svg+xml</dc:format>
        <dc:type
           rdf:resource="http://purl.org/dc/dcmitype/StillImage" />
        <dc:title></dc:title>
      </cc:Work>
    </rdf:RDF>
  </metadata>
  <g
     inkscape:label="Layer 1"
     inkscape:groupmode="layer"
     id="layer1"
     transform="translate(-109.68869,-16.166122)">
    <g
       transform="matrix(0.35277777,0,0,0.35277777,29.960922,-17.15336)"
       id="g947"
       style="fill:#211e1e;fill-opacity:1">
      <g
         id="use945"
         transform="matrix(0.26458333,0,0,0.26458333,226,95.900002)">
        <path
           inkscape:connector-curvature="0"
           id="path1669"
           d="m 14.578125,1.078125 v -6.5 H 13.625 v 5.71875 h -0.890625 c 0.234375,-0.5 0.3125,-0.859375 0.3125,-1.328125 0,-1.171875 -0.59375,-2.3125 -1.90625,-2.3125 H 10.40625 V -4.5625 h 1.75 V -5.453125 H 7.75 c -1.03125,0 -1.359375,0.875 -1.359375,1.546875 v 3.1875 H 4.78125 c 0.484375,-0.609375 0.671875,-1.09375 0.671875,-1.875 -0.03125,-1.5625 -0.8125,-2.890625 -2.765625,-2.890625 -1.8125,0 -2.828125,1.515625 -2.671875,3.390625 H 1.0625 C 0.84375,-3.640625 1.53125,-4.5625 2.671875,-4.5625 c 1.171875,0 1.6875,1.109375 1.6875,2.1875 0,0.828125 -0.59375,1.71875 -1.328125,1.625 v 0.921875 h 4.3125 V -0.15625 C 7.734375,0.0625 8.0625,0.109375 8.5,0.109375 c 0.71875,0 1.84375,-0.5625 1.84375,-1.59375 V -2.5625 h 0.515625 c 0.828125,0 1.265625,0.703125 1.265625,1.53125 0,0.5 -0.125,0.921875 -0.359375,1.234375 H 7.5 c -0.59375,0 -1.125,0.359375 -1.125,0.9375 0,1.0625 1.40625,1.421875 2.53125,1.421875 1.484375,0 2.671875,-0.578125 3.421875,-1.484375 z M 9.390625,-3.4375 h -1.3125 c -0.25,0 -0.578125,0.09375 -0.71875,0.234375 v -0.6875 c 0,-0.328125 0.3125,-0.6875 0.796875,-0.6875 h 1.234375 z m 0,1.75 c 0,0.546875 -0.40625,0.96875 -0.890625,0.96875 -0.625,0 -1.171875,-0.359375 -1.171875,-0.9375 0,-0.453125 0.328125,-0.90625 0.796875,-0.90625 h 1.265625 z m 1.765625,2.71875 c -0.609375,0.421875 -1.25,0.734375 -2.046875,0.734375 -0.828125,0 -1.765625,-0.1875 -1.765625,-0.46875 0,-0.109375 -0.015625,-0.265625 0.265625,-0.265625 z m 0,0"
           style="stroke:none" />
      </g>
    </g>
  </g>
</svg>
