<?xml version="1.0" standalone="no"?>
<!DOCTYPE svg PUBLIC "-//W3C//DTD SVG 1.1//EN" "http://www.w3.org/Graphics/SVG/1.1/DTD/svg11.dtd" >
<svg xmlns="http://www.w3.org/2000/svg" xmlns:xlink="http://www.w3.org/1999/xlink" version="1.1" viewBox="0 -585 1160 2048">
  <g transform="matrix(1 0 0 -1 0 1638)">
   <path fill="currentColor"
d="M432 982q50 2 112 -2q170 -8 300 -140q130 -130 124 -288q-6 -190 -240 -340q-62 -40 -192 -108q-126 -66 -174 -98q-70 -48 -102 -130q-32 -80 -10 -148q22 -74 108 -130t178 -62q106 -8 208 40q106 48 140 128q50 108 20 214q-32 108 -160 282l96 72q140 -192 178 -320
q42 -150 -24 -298q-54 -118 -200 -186q-130 -60 -266 -52q-124 8 -234 82q-124 80 -158 194q-34 112 10 228q46 116 150 184q60 40 184 106q130 68 184 102q182 116 186 244q4 106 -90 200q-76 76 -176 98q46 -72 46 -158q0 -104 -80 -192q-82 -86 -186 -86q-106 0 -180 70
q-84 78 -84 208q0 148 96 220q82 62 236 66zM374 858q-72 -12 -106 -38q-48 -36 -48 -124q0 -80 44 -122q40 -38 100 -38q52 0 98 50q48 52 48 110q0 68 -40 116q-38 46 -96 46z" />
  </g>

</svg>
