<?xml version="1.0" standalone="no"?>
<!DOCTYPE svg PUBLIC "-//W3C//DTD SVG 1.1//EN" "http://www.w3.org/Graphics/SVG/1.1/DTD/svg11.dtd" >
<svg xmlns="http://www.w3.org/2000/svg" xmlns:xlink="http://www.w3.org/1999/xlink" version="1.1" viewBox="0 -410 2174 2048">
  <g transform="matrix(1 0 0 -1 0 1638)">
   <path fill="currentColor"
d="M700 1522q92 0 180 -28q204 -64 308 -230q54 -88 66 -188q12 -104 -24 -198q-40 -106 -156 -214q-20 -18 -92 -82q-56 -50 -86 -80q-90 -94 -108 -186q-10 -52 2 -98q14 -48 50 -78q30 -26 76 -36q32 -8 98 -8h964v806h96v-902h-1060q-76 0 -118 10q-70 14 -120 56
q-58 48 -78 126q-20 68 -4 142q22 120 132 234q34 36 92 86q76 66 90 80q100 94 132 178q28 72 18 152q-8 78 -52 148q-84 136 -254 190q-214 66 -396 -40q-128 -76 -202 -224q42 10 84 4q86 -12 144 -84q50 -64 56 -152q6 -80 -28 -144q-40 -74 -118 -100q-82 -26 -160 18
q-70 38 -104 116q-28 62 -26 136h-2q0 16 2 36q6 52 24 112q78 246 280 364q134 78 294 78zM300 1048q-38 -4 -66 -28q-24 -22 -34 -58q-2 -28 -2 -24q-2 -58 18 -102q22 -48 62 -72q44 -24 86 -10q38 14 60 54t18 92q-4 58 -36 98q-34 42 -82 50h-24z" />
  </g>

</svg>
