<?xml version="1.0" standalone="no"?>
<!DOCTYPE svg PUBLIC "-//W3C//DTD SVG 1.1//EN" "http://www.w3.org/Graphics/SVG/1.1/DTD/svg11.dtd" >
<svg xmlns="http://www.w3.org/2000/svg" xmlns:xlink="http://www.w3.org/1999/xlink" version="1.1" viewBox="0 -410 2172 2048">
  <g transform="matrix(1 0 0 -1 0 1638)">
   <path fill="currentColor"
d="M470 540h246v346h-246v-346zM962 1278q52 0 87 43t35 105t-36 105t-86 43q-52 0 -88 -43t-36 -105t36 -105t88 -43zM494 74q90 0 156 58t66 138v172h-370q-52 0 -87 -35t-35 -87q0 -100 79 -173t191 -73zM1130 1594q78 -70 78 -168q0 -100 -73 -173t-173 -73t-173 73
t-73 173q0 54 26 100t72 72q-96 -18 -159 -88t-63 -158q0 -98 73 -198t199 -170h344v-98h-370v-346h148q114 0 192 -78t78 -192q0 -122 -72 -208t-174 -86q-28 0 -58 6t-64 18l24 98q22 -12 47 -18t51 -6q52 0 88 58t36 138q0 72 -43 122t-105 50h-148v-172
q0 -122 -101 -208t-243 -86q-162 0 -278 101t-116 243q0 90 73 155t173 65v444h344q-104 60 -162 159t-58 209q0 142 108 243t260 101q60 0 114 -12q74 14 192 14q30 0 62 -2h12q114 0 202 -34q132 -56 152 -170q6 -30 6 -58q0 -84 -48 -156q-18 -26 -50 -64h592v-98h-814
q156 176 162 208q36 50 36 110q0 22 -6 44q-10 64 -86 96q-64 24 -148 24h-8q-42 -2 -78 -4z" />
  </g>

</svg>
