<?xml version="1.0" standalone="no"?>
<!DOCTYPE svg PUBLIC "-//W3C//DTD SVG 1.1//EN" "http://www.w3.org/Graphics/SVG/1.1/DTD/svg11.dtd" >
<svg xmlns="http://www.w3.org/2000/svg" xmlns:xlink="http://www.w3.org/1999/xlink" version="1.1" viewBox="0 -324 996 1024">
  <g transform="matrix(1 0 0 -1 0 700)">
   <path fill="currentColor"
d="M348.5 271q21.5 -25 52.5 -25t52.5 25t21.5 61t-22 61t-52 25q-31 0 -52.5 -25t-21.5 -61t21.5 -61zM47 -60q40 53 108 85q-42 74 -64 155t-22 164q0 188 129.5 321.5t312.5 133.5q163 0 278.5 -122.5t115.5 -295.5v-381h-62v381q0 152 -97 260.5t-235 108.5
q-157 0 -269 -118.5t-112 -287.5q0 -76 19 -148t55 -135q53 31 121 46.5t150 15.5q33 0 67.5 -6t67.5 -19q9 34 13.5 74.5t4.5 85.5q0 81 -45 139t-108 58h-37q39 -14 62.5 -47.5t23.5 -75.5q0 -57 -36.5 -96t-86.5 -39t-86.5 39t-36.5 96q0 71 57.5 121.5t139.5 50.5
q86 0 147 -72t61 -174q0 -52 -6 -95.5t-18 -76.5q77 -28 124.5 -95.5t47.5 -150.5q0 -61 -50.5 -104t-121.5 -43q-69 0 -133 22t-113 64q-49 -42 -119 -64t-151 -22q-57 0 -96.5 39t-39.5 96q0 59 40 112zM90.5 -233q21.5 -25 52.5 -25q58 0 113 17t102 50q-63 44 -108 89
t-71 90q-50 -26 -80 -69t-30 -91q0 -36 21.5 -61zM312.5 -79.5q43.5 -42.5 100.5 -74.5q64 45 108 97t64 106q-33 12 -61.5 18.5t-48.5 6.5q-63 0 -122 -15.5t-112 -46.5q28 -49 71.5 -91.5zM570 -241q50 -17 89 -17q45 0 78 29t33 69q0 66 -37 120.5t-99 76.5
q-26 -70 -69.5 -128.5t-102.5 -99.5q58 -33 108 -50z" />
  </g>

</svg>
