<?xml version="1.0" standalone="no"?>
<!DOCTYPE svg PUBLIC "-//W3C//DTD SVG 1.1//EN" "http://www.w3.org/Graphics/SVG/1.1/DTD/svg11.dtd" >
<svg xmlns="http://www.w3.org/2000/svg" xmlns:xlink="http://www.w3.org/1999/xlink" version="1.1" viewBox="0 -324 684 1024">
  <g transform="matrix(1 0 0 -1 0 700)">
   <path fill="currentColor"
d="M334 444q14 28 47 44.5t76 16.5h222v-55h-99v-449h-61v449h-62q-31 0 -58 -22.5t-40 -57.5v-369h-62v369q0 36 -21.5 61t-51.5 25q-31 0 -52.5 -25.5t-21.5 -60.5v-369h-61v369q0 57 39 96t96 39q28 0 57 -16t53 -45z" />
  </g>

</svg>
