<?xml version="1.0" encoding="UTF-8" standalone="no"?>
<!-- Created with Inkscape (http://www.inkscape.org/) -->

<svg
   xmlns:dc="http://purl.org/dc/elements/1.1/"
   xmlns:cc="http://creativecommons.org/ns#"
   xmlns:rdf="http://www.w3.org/1999/02/22-rdf-syntax-ns#"
   xmlns:svg="http://www.w3.org/2000/svg"
   xmlns="http://www.w3.org/2000/svg"
   xmlns:sodipodi="http://sodipodi.sourceforge.net/DTD/sodipodi-0.dtd"
   xmlns:inkscape="http://www.inkscape.org/namespaces/inkscape"
   width="0.63878959mm"
   height="0.52357411mm"
   viewBox="0 0 0.63878959 0.52357411"
   version="1.1"
   id="svg1138"
   inkscape:version="0.92.4 (unknown)"
   sodipodi:docname="4.svg">
  <defs
     id="defs1132" />
  <sodipodi:namedview
     id="base"
     pagecolor="#ffffff"
     bordercolor="#666666"
     borderopacity="1.0"
     inkscape:pageopacity="0.0"
     inkscape:pageshadow="2"
     inkscape:zoom="256"
     inkscape:cx="1.2071596"
     inkscape:cy="0.98941535"
     inkscape:document-units="mm"
     inkscape:current-layer="layer1"
     showgrid="false"
     fit-margin-top="0"
     fit-margin-left="0"
     fit-margin-right="0"
     fit-margin-bottom="0"
     inkscape:window-width="1920"
     inkscape:window-height="1017"
     inkscape:window-x="0"
     inkscape:window-y="30"
     inkscape:window-maximized="1" />
  <metadata
     id="metadata1135">
    <rdf:RDF>
      <cc:Work
         rdf:about="">
        <dc:format>image/svg+xml</dc:format>
        <dc:type
           rdf:resource="http://purl.org/dc/dcmitype/StillImage" />
        <dc:title></dc:title>
      </cc:Work>
    </rdf:RDF>
  </metadata>
  <g
     inkscape:label="Layer 1"
     inkscape:groupmode="layer"
     id="layer1"
     transform="translate(-80.56751,-295.2263)">
    <g
       transform="matrix(0.35277777,0,0,0.35277777,53.036732,238.20307)"
       id="g635"
       style="fill:#211e1e;fill-opacity:1">
      <g
         id="use633"
         transform="matrix(0.26458333,0,0,0.26458333,78.040001,163.10001)">
        <path
           inkscape:connector-curvature="0"
           id="path1150"
           d="M 6.84375,-2.78125 V -5.515625 H 5.921875 v 1.84375 H 4.078125 V -4.625 H 5 V -5.515625 H 1.25 v 1.9375 C 0.46875,-3.296875 0,-2.671875 0,-1.84375 c 0,1.28125 1.03125,1.9375 2.15625,1.9375 0.921875,0 1.921875,-0.75 1.921875,-1.9375 v -0.9375 z m -3.75,-0.890625 H 2.203125 V -4.625 H 3.09375 Z m 0,1.8125 c 0,0.71875 -0.5,0.984375 -1.015625,1.015625 C 1.5,-0.8125 0.9375,-1.140625 0.921875,-1.734375 0.90625,-2.265625 1.5,-2.78125 2.046875,-2.78125 H 3.09375 Z m 0,0"
           style="stroke:none" />
      </g>
    </g>
  </g>
</svg>
