<?xml version="1.0" encoding="UTF-8" standalone="no"?>
<!-- Created with Inkscape (http://www.inkscape.org/) -->

<svg
   xmlns:dc="http://purl.org/dc/elements/1.1/"
   xmlns:cc="http://creativecommons.org/ns#"
   xmlns:rdf="http://www.w3.org/1999/02/22-rdf-syntax-ns#"
   xmlns:svg="http://www.w3.org/2000/svg"
   xmlns="http://www.w3.org/2000/svg"
   xmlns:sodipodi="http://sodipodi.sourceforge.net/DTD/sodipodi-0.dtd"
   xmlns:inkscape="http://www.inkscape.org/namespaces/inkscape"
   width="0.65629065mm"
   height="0.50315619mm"
   viewBox="0 0 0.65629065 0.50315619"
   version="1.1"
   id="svg2608"
   inkscape:version="0.92.4 (unknown)"
   sodipodi:docname="7.svg">
  <defs
     id="defs2602" />
  <sodipodi:namedview
     id="base"
     pagecolor="#ffffff"
     bordercolor="#666666"
     borderopacity="1.0"
     inkscape:pageopacity="0.0"
     inkscape:pageshadow="2"
     inkscape:zoom="256"
     inkscape:cx="1.2402333"
     inkscape:cy="0.95084582"
     inkscape:document-units="mm"
     inkscape:current-layer="layer1"
     showgrid="false"
     fit-margin-top="0"
     fit-margin-left="0"
     fit-margin-right="0"
     fit-margin-bottom="0"
     inkscape:window-width="1920"
     inkscape:window-height="1017"
     inkscape:window-x="0"
     inkscape:window-y="30"
     inkscape:window-maximized="1" />
  <metadata
     id="metadata2605">
    <rdf:RDF>
      <cc:Work
         rdf:about="">
        <dc:format>image/svg+xml</dc:format>
        <dc:type
           rdf:resource="http://purl.org/dc/dcmitype/StillImage" />
        <dc:title></dc:title>
      </cc:Work>
    </rdf:RDF>
  </metadata>
  <g
     inkscape:label="Layer 1"
     inkscape:groupmode="layer"
     id="layer1"
     transform="translate(-97.945664,-54.84366)">
    <g
       transform="matrix(0.35277777,0,0,0.35277777,70.390093,-19.972696)"
       id="g671"
       style="fill:#211e1e;fill-opacity:1">
      <g
         id="use669"
         transform="matrix(0.26458333,0,0,0.26458333,78.040001,213.5)">
        <path
           inkscape:connector-curvature="0"
           id="path2620"
           d="M 7.296875,-4.546875 V -5.375 h -4.625 c -1.15625,0 -2.40625,0.875 -2.40625,2.859375 0,1.421875 0.8125,2.53125 2.109375,2.53125 0.953125,0 1.796875,-0.671875 1.796875,-1.609375 0,-1.140625 -0.59375,-1.796875 -1.765625,-1.796875 -0.546875,0 -0.984375,0.1875 -1.296875,0.671875 C 1,-3.84375 2.09375,-4.546875 3.015625,-4.546875 H 4.96875 V 0 h 0.984375 v -4.546875 z m -4.09375,2.875 C 3.203125,-1.21875 2.84375,-0.875 2.375,-0.875 c -0.453125,0 -0.828125,-0.34375 -0.828125,-0.796875 0,-0.4375 0.375,-0.8125 0.828125,-0.8125 0.46875,0 0.828125,0.375 0.828125,0.8125 z m 0,0"
           style="stroke:none" />
      </g>
    </g>
  </g>
</svg>
