<?xml version="1.0" encoding="UTF-8" standalone="no"?>
<!-- Created with Inkscape (http://www.inkscape.org/) -->

<svg
   xmlns:dc="http://purl.org/dc/elements/1.1/"
   xmlns:cc="http://creativecommons.org/ns#"
   xmlns:rdf="http://www.w3.org/1999/02/22-rdf-syntax-ns#"
   xmlns:svg="http://www.w3.org/2000/svg"
   xmlns="http://www.w3.org/2000/svg"
   xmlns:sodipodi="http://sodipodi.sourceforge.net/DTD/sodipodi-0.dtd"
   xmlns:inkscape="http://www.inkscape.org/namespaces/inkscape"
   width="0.9727686mm"
   height="0.54690892mm"
   viewBox="0 0 0.9727686 0.54690892"
   version="1.1"
   id="svg3352"
   inkscape:version="0.92.4 (unknown)"
   sodipodi:docname="போயி.svg">
  <defs
     id="defs3346" />
  <sodipodi:namedview
     id="base"
     pagecolor="#ffffff"
     bordercolor="#666666"
     borderopacity="1.0"
     inkscape:pageopacity="0.0"
     inkscape:pageshadow="2"
     inkscape:zoom="256"
     inkscape:cx="1.8383105"
     inkscape:cy="1.0335102"
     inkscape:document-units="mm"
     inkscape:current-layer="layer1"
     showgrid="false"
     fit-margin-top="0"
     fit-margin-left="0"
     fit-margin-right="0"
     fit-margin-bottom="0"
     inkscape:window-width="1920"
     inkscape:window-height="1017"
     inkscape:window-x="0"
     inkscape:window-y="30"
     inkscape:window-maximized="1" />
  <metadata
     id="metadata3349">
    <rdf:RDF>
      <cc:Work
         rdf:about="">
        <dc:format>image/svg+xml</dc:format>
        <dc:type
           rdf:resource="http://purl.org/dc/dcmitype/StillImage" />
        <dc:title></dc:title>
      </cc:Work>
    </rdf:RDF>
  </metadata>
  <g
     inkscape:label="Layer 1"
     inkscape:groupmode="layer"
     id="layer1"
     transform="translate(181.15901,-112.27416)">
    <g
       transform="matrix(0.35277777,0,0,0.35277777,-345.67607,56.709227)"
       id="g1487"
       style="fill:#211e1e;fill-opacity:1">
      <g
         id="use1485"
         transform="matrix(0.26458333,0,0,0.26458333,466.35999,159.02)">
        <path
           inkscape:connector-curvature="0"
           id="path3364"
           d="M 10.375,0.0625 V -0.921875 H 9.984375 c -0.484375,0 -0.59375,-0.21875 -0.59375,-0.609375 v -2.625 c 0,-0.75 -0.734375,-1.109375 -1.453125,-1.109375 -0.6875,0 -1.46875,0.34375 -1.46875,1.15625 v 2.5 c 0,0.546875 -0.34375,0.84375 -0.890625,0.84375 -0.796875,0 -1.109375,-0.828125 -1.109375,-1.5 V -3.25 H 3.296875 c 0.09375,0.875 -0.203125,2.265625 -1.234375,2.265625 -0.578125,0 -1.125,-0.34375 -1.125,-1.015625 v -3.71875 h -0.984375 v 3.765625 c 0,1.265625 0.921875,2 1.96875,2 1,0 1.515625,-0.5 1.875,-1.015625 0.3125,0.65625 0.984375,1.109375 1.875,1.109375 0.828125,0 1.671875,-0.671875 1.671875,-1.71875 V -3.65625 c 0,-0.390625 0.28125,-0.625 0.625,-0.625 0.25,0 0.421875,0.203125 0.421875,0.484375 v 2.25 C 8.390625,-0.5 8.984375,0.0625 9.78125,0.0625 Z m 0,0"
           style="stroke:none" />
      </g>
    </g>
  </g>
</svg>
