<?xml version="1.0" encoding="UTF-8" standalone="no"?>
<!-- Created with Inkscape (http://www.inkscape.org/) -->

<svg
   xmlns:dc="http://purl.org/dc/elements/1.1/"
   xmlns:cc="http://creativecommons.org/ns#"
   xmlns:rdf="http://www.w3.org/1999/02/22-rdf-syntax-ns#"
   xmlns:svg="http://www.w3.org/2000/svg"
   xmlns="http://www.w3.org/2000/svg"
   xmlns:sodipodi="http://sodipodi.sourceforge.net/DTD/sodipodi-0.dtd"
   xmlns:inkscape="http://www.inkscape.org/namespaces/inkscape"
   width="1.290705mm"
   height="0.6635828mm"
   viewBox="0 0 1.290705 0.6635828"
   version="1.1"
   id="svg3226"
   inkscape:version="0.92.4 (unknown)"
   sodipodi:docname="பிள்ளை.svg">
  <defs
     id="defs3220" />
  <sodipodi:namedview
     id="base"
     pagecolor="#ffffff"
     bordercolor="#666666"
     borderopacity="1.0"
     inkscape:pageopacity="0.0"
     inkscape:pageshadow="2"
     inkscape:zoom="256"
     inkscape:cx="2.439111"
     inkscape:cy="1.254029"
     inkscape:document-units="mm"
     inkscape:current-layer="layer1"
     showgrid="false"
     fit-margin-top="0"
     fit-margin-left="0"
     fit-margin-right="0"
     fit-margin-bottom="0"
     inkscape:window-width="1920"
     inkscape:window-height="1017"
     inkscape:window-x="0"
     inkscape:window-y="30"
     inkscape:window-maximized="1" />
  <metadata
     id="metadata3223">
    <rdf:RDF>
      <cc:Work
         rdf:about="">
        <dc:format>image/svg+xml</dc:format>
        <dc:type
           rdf:resource="http://purl.org/dc/dcmitype/StillImage" />
        <dc:title></dc:title>
      </cc:Work>
    </rdf:RDF>
  </metadata>
  <g
     inkscape:label="Layer 1"
     inkscape:groupmode="layer"
     id="layer1"
     transform="translate(195.68106,-124.31107)">
    <g
       transform="matrix(0.35277777,0,0,0.35277777,-360.2188,85.809261)"
       id="g1443"
       style="fill:#211e1e;fill-opacity:1">
      <g
         id="use1435"
         transform="matrix(0.26458333,0,0,0.26458333,466.35999,111.02)">
        <path
           inkscape:connector-curvature="0"
           id="path3250"
           d=""
           style="stroke:none" />
      </g>
      <g
         id="use1437"
         transform="matrix(0.26458333,0,0,0.26458333,466.3754,111.02)">
        <path
           inkscape:connector-curvature="0"
           id="path3254"
           d=""
           style="stroke:none" />
      </g>
      <g
         id="use1439"
         transform="matrix(0.26458333,0,0,0.26458333,466.39081,111.02)">
        <path
           inkscape:connector-curvature="0"
           id="path3258"
           d=""
           style="stroke:none" />
      </g>
      <g
         id="use1441"
         transform="matrix(0.26458333,0,0,0.26458333,466.40619,111.02)">
        <path
           inkscape:connector-curvature="0"
           id="path3262"
           d="m 13.828125,-3.4375 c -0.109375,-1.140625 -0.828125,-1.890625 -2,-1.890625 -0.40625,0 -0.65625,0.015625 -1.015625,0.1875 C 10.546875,-5.3125 10.328125,-5.25 10.03125,-5.25 c -0.625,0 -0.984375,0.046875 -1.609375,0.375 v -0.546875 c 0,-0.96875 -0.8125,-1.6875 -1.984375,-1.6875 -0.953125,0 -2.015625,0.515625 -2.015625,1.78125 v 4.34375 H 1 V -5.5 H 0 V 0 h 5.40625 v -5.40625 c 0,-0.46875 0.546875,-0.75 1.015625,-0.75 0.515625,0 1.046875,0.296875 1.046875,0.828125 V -3 h 0.875 c 0.03125,-0.890625 0.671875,-1.265625 1.171875,-1.359375 -0.34375,0.34375 -0.46875,0.6875 -0.46875,1.171875 0,0.828125 0.609375,1.421875 1.546875,1.421875 0.921875,0 1.53125,-0.65625 1.53125,-1.515625 0,-0.46875 -0.140625,-0.890625 -0.34375,-1.1875 0.578125,-0.015625 1.078125,0.625 1.046875,1.234375 z m -3.21875,0.875 c -0.953125,0 -0.625,-1.640625 0,-1.640625 0.59375,0 0.71875,1.640625 0,1.640625 z m 0,0"
           style="stroke:none" />
      </g>
    </g>
  </g>
</svg>
