<?xml version="1.0" encoding="UTF-8" standalone="no"?>
<!-- Created with Inkscape (http://www.inkscape.org/) -->

<svg
   xmlns:dc="http://purl.org/dc/elements/1.1/"
   xmlns:cc="http://creativecommons.org/ns#"
   xmlns:rdf="http://www.w3.org/1999/02/22-rdf-syntax-ns#"
   xmlns:svg="http://www.w3.org/2000/svg"
   xmlns="http://www.w3.org/2000/svg"
   xmlns:sodipodi="http://sodipodi.sourceforge.net/DTD/sodipodi-0.dtd"
   xmlns:inkscape="http://www.inkscape.org/namespaces/inkscape"
   width="0.50898987mm"
   height="0.80359149mm"
   viewBox="0 0 0.50898987 0.80359149"
   version="1.1"
   id="svg3524"
   inkscape:version="0.92.4 (unknown)"
   sodipodi:docname="பணம்.svg">
  <defs
     id="defs3518" />
  <sodipodi:namedview
     id="base"
     pagecolor="#ffffff"
     bordercolor="#666666"
     borderopacity="1.0"
     inkscape:pageopacity="0.0"
     inkscape:pageshadow="2"
     inkscape:zoom="256"
     inkscape:cx="0.96186038"
     inkscape:cy="1.5186068"
     inkscape:document-units="mm"
     inkscape:current-layer="layer1"
     showgrid="false"
     fit-margin-top="0"
     fit-margin-left="0"
     fit-margin-right="0"
     fit-margin-bottom="0"
     inkscape:window-width="1920"
     inkscape:window-height="1017"
     inkscape:window-x="0"
     inkscape:window-y="30"
     inkscape:window-maximized="1" />
  <metadata
     id="metadata3521">
    <rdf:RDF>
      <cc:Work
         rdf:about="">
        <dc:format>image/svg+xml</dc:format>
        <dc:type
           rdf:resource="http://purl.org/dc/dcmitype/StillImage" />
        <dc:title></dc:title>
      </cc:Work>
    </rdf:RDF>
  </metadata>
  <g
     inkscape:label="Layer 1"
     inkscape:groupmode="layer"
     id="layer1"
     transform="translate(224.0164,-116.68154)">
    <g
       transform="matrix(0.35277777,0,0,0.35277777,-388.53784,43.311807)"
       id="g1535"
       style="fill:#211e1e;fill-opacity:1">
      <g
         id="use1533"
         transform="matrix(0.26458333,0,0,0.26458333,466.35999,209.42)">
        <path
           inkscape:connector-curvature="0"
           id="path3536"
           d="M 5.453125,3.15625 V -5.453125 H 4.53125 v 3.09375 c 0,1.03125 -0.875,1.421875 -1.78125,1.421875 -1.0625,0 -1.875,-0.59375 -1.875,-1.625 V -5.453125 H 0 v 2.71875 C 0,-1.09375 1.0625,0 2.890625,0 c 0.65625,0 1.21875,-0.203125 1.625,-0.46875 v 3.625 z m 0,0"
           style="stroke:none" />
      </g>
    </g>
  </g>
</svg>
