<?xml version="1.0" encoding="UTF-8" standalone="no"?>
<!-- Created with Inkscape (http://www.inkscape.org/) -->

<svg
   xmlns:dc="http://purl.org/dc/elements/1.1/"
   xmlns:cc="http://creativecommons.org/ns#"
   xmlns:rdf="http://www.w3.org/1999/02/22-rdf-syntax-ns#"
   xmlns:svg="http://www.w3.org/2000/svg"
   xmlns="http://www.w3.org/2000/svg"
   xmlns:sodipodi="http://sodipodi.sourceforge.net/DTD/sodipodi-0.dtd"
   xmlns:inkscape="http://www.inkscape.org/namespaces/inkscape"
   width="1.1156942mm"
   height="0.73953646mm"
   viewBox="0 0 1.1156942 0.73953646"
   version="1.1"
   id="svg3626"
   inkscape:version="0.92.4 (unknown)"
   sodipodi:docname="வராகன்.svg">
  <defs
     id="defs3620" />
  <sodipodi:namedview
     id="base"
     pagecolor="#ffffff"
     bordercolor="#666666"
     borderopacity="1.0"
     inkscape:pageopacity="0.0"
     inkscape:pageshadow="2"
     inkscape:zoom="256"
     inkscape:cx="2.1083881"
     inkscape:cy="1.3975486"
     inkscape:document-units="mm"
     inkscape:current-layer="layer1"
     showgrid="false"
     fit-margin-top="0"
     fit-margin-left="0"
     fit-margin-right="0"
     fit-margin-bottom="0"
     inkscape:window-width="1920"
     inkscape:window-height="1017"
     inkscape:window-x="0"
     inkscape:window-y="30"
     inkscape:window-maximized="1" />
  <metadata
     id="metadata3623">
    <rdf:RDF>
      <cc:Work
         rdf:about="">
        <dc:format>image/svg+xml</dc:format>
        <dc:type
           rdf:resource="http://purl.org/dc/dcmitype/StillImage" />
        <dc:title></dc:title>
      </cc:Work>
    </rdf:RDF>
  </metadata>
  <g
     inkscape:label="Layer 1"
     inkscape:groupmode="layer"
     id="layer1"
     transform="translate(185.01023,-91.011184)">
    <g
       transform="matrix(0.35277777,0,0,0.35277777,-349.53167,5.8130292)"
       id="g1559"
       style="fill:#211e1e;fill-opacity:1">
      <g
         id="use1557"
         transform="matrix(0.26458333,0,0,0.26458333,466.35999,243.02)">
        <path
           inkscape:connector-curvature="0"
           id="path3638"
           d="m 11.953125,-2.71875 c 0,-1.53125 -0.515625,-2.984375 -1.90625,-2.984375 -0.578125,0 -0.984375,0.125 -1.34375,0.515625 C 8.375,-5.5625 8.09375,-5.703125 7.625,-5.71875 6.84375,-5.75 6.109375,-5.1875 6.109375,-4.3125 v 3.546875 h -1.25 c 0.421875,-0.625 0.734375,-1.15625 0.734375,-2 0,-1.921875 -1.015625,-2.9375 -2.640625,-2.9375 C 1.265625,-5.703125 0,-4.71875 0,-2.359375 c 0,1.375 0.46875,2.5625 1.703125,2.5625 C 2.734375,0.203125 3.53125,-0.71875 3.28125,-2 H 2.4375 c 0.09375,0.140625 0.140625,0.3125 0.140625,0.46875 0.015625,0.46875 -0.40625,0.84375 -0.796875,0.84375 -0.890625,0 -1,-1.21875 -1,-2.15625 0,-1.3125 0.9375,-2.046875 2.09375,-2.046875 1.140625,0 1.84375,0.71875 1.84375,2.046875 0,1.25 -0.65625,2.3125 -1.171875,2.84375 h 3.4375 v -4.203125 c 0,-0.28125 0.1875,-0.546875 0.453125,-0.546875 0.34375,0 0.515625,0.3125 0.515625,0.703125 v 2.25 h 0.90625 V -3.90625 c 0,-0.609375 0.546875,-1 1.109375,-1 0.875,0 1.171875,1.109375 1.171875,2.140625 0,1.9375 -0.859375,2.78125 -2.015625,3.0625 -0.40625,0.078125 -0.875,0 -1.3125,0 -0.671875,0 -1.15625,0.078125 -1.75,0.578125 V 2.203125 C 6.703125,1.125 7.4375,1.125 8.5,1.125 c 2.640625,0 3.453125,-1.75 3.453125,-3.84375 z m 0,0"
           style="stroke:none" />
      </g>
    </g>
  </g>
</svg>
