<?xml version="1.0" encoding="UTF-8" standalone="no"?>
<!-- Created with Inkscape (http://www.inkscape.org/) -->

<svg
   xmlns:dc="http://purl.org/dc/elements/1.1/"
   xmlns:cc="http://creativecommons.org/ns#"
   xmlns:rdf="http://www.w3.org/1999/02/22-rdf-syntax-ns#"
   xmlns:svg="http://www.w3.org/2000/svg"
   xmlns="http://www.w3.org/2000/svg"
   xmlns:sodipodi="http://sodipodi.sourceforge.net/DTD/sodipodi-0.dtd"
   xmlns:inkscape="http://www.inkscape.org/namespaces/inkscape"
   width="210mm"
   height="297mm"
   viewBox="0 0 210 297"
   version="1.1"
   id="svg4666"
   inkscape:version="0.91 r13725"
   sodipodi:docname="0 - template - to start.svg">
  <defs
     id="defs4660" />
  <sodipodi:namedview
     id="base"
     pagecolor="#ffffff"
     bordercolor="#666666"
     borderopacity="1.0"
     inkscape:pageopacity="0.0"
     inkscape:pageshadow="2"
     inkscape:zoom="3.959798"
     inkscape:cx="139.59732"
     inkscape:cy="791.35991"
     inkscape:document-units="mm"
     inkscape:current-layer="layer1"
     showgrid="true"
     showguides="true"
     inkscape:guide-bbox="true"
     inkscape:measure-start="412.143,701.964"
     inkscape:measure-end="422.177,701.964"
     inkscape:snap-global="false"
     inkscape:window-width="1366"
     inkscape:window-height="705"
     inkscape:window-x="0"
     inkscape:window-y="30"
     inkscape:window-maximized="1">
    <sodipodi:guide
       position="85.372223,218.72223"
       orientation="0,1"
       id="guide4685"
       inkscape:locked="false" />
    <sodipodi:guide
       position="80.433334,220.99008"
       orientation="1,0"
       id="guide4691"
       inkscape:locked="false" />
    <sodipodi:guide
       position="105.83333,203.75437"
       orientation="1,0"
       id="guide4703"
       inkscape:locked="false" />
    <sodipodi:guide
       position="107.95,186.21627"
       orientation="0,1"
       id="guide3475" />
    <sodipodi:guide
       position="93.133333,208.64286"
       orientation="1,0"
       id="guide3371" />
    <sodipodi:guide
       position="111.54048,202.41213"
       orientation="0,1"
       id="guide3373" />
    <inkscape:grid
       type="xygrid"
       id="grid3352" />
  </sodipodi:namedview>
  <metadata
     id="metadata4663">
    <rdf:RDF>
      <cc:Work
         rdf:about="">
        <dc:format>image/svg+xml</dc:format>
        <dc:type
           rdf:resource="http://purl.org/dc/dcmitype/StillImage" />
        <dc:title />
        <cc:license
           rdf:resource="http://creativecommons.org/publicdomain/zero/1.0/" />
      </cc:Work>
      <cc:License
         rdf:about="http://creativecommons.org/publicdomain/zero/1.0/">
        <cc:permits
           rdf:resource="http://creativecommons.org/ns#Reproduction" />
        <cc:permits
           rdf:resource="http://creativecommons.org/ns#Distribution" />
        <cc:permits
           rdf:resource="http://creativecommons.org/ns#DerivativeWorks" />
      </cc:License>
    </rdf:RDF>
  </metadata>
  <g
     inkscape:label="Layer 1"
     inkscape:groupmode="layer"
     id="layer1">
    <rect
       style="opacity:1;fill:none;fill-opacity:1;stroke:#ff2a2a;stroke-width:0.14111114;stroke-linecap:round;stroke-linejoin:round;stroke-miterlimit:4;stroke-dasharray:0.28222223, 0.28222223;stroke-dashoffset:0;stroke-opacity:1"
       id="rect3350"
       width="25.384886"
       height="32.432041"
       x="80.48098"
       y="78.363297" />
    <g
       id="g3359"
       transform="translate(0,-1.6933333)">
      <rect
         y="61.303913"
         x="27.510942"
         height="16.96777"
         width="51.964855"
         id="rect3347"
         style="opacity:1;fill:#1a1a1a;fill-opacity:1;stroke:#ff2a2a;stroke-width:0.14111111;stroke-linecap:round;stroke-linejoin:round;stroke-miterlimit:4;stroke-dasharray:0.28222222, 0.28222222;stroke-dashoffset:0;stroke-opacity:1" />
      <text
         sodipodi:linespacing="125%"
         id="text3339"
         y="64.448685"
         x="28.661133"
         style="font-style:normal;font-weight:normal;font-size:9.63140392px;line-height:125%;font-family:sans-serif;letter-spacing:0px;word-spacing:0px;fill:#f9f9f9;fill-opacity:1;stroke:none;stroke-width:1px;stroke-linecap:butt;stroke-linejoin:miter;stroke-opacity:1"
         xml:space="preserve"><tspan
           style="font-style:normal;font-variant:normal;font-weight:normal;font-stretch:normal;font-size:3.00981379px;font-family:'American Typewriter';-inkscape-font-specification:'American Typewriter';fill:#f9f9f9"
           y="64.448685"
           x="28.661133"
           id="tspan3341"
           sodipodi:role="line">Glyph name :</tspan></text>
      <text
         xml:space="preserve"
         style="font-style:normal;font-weight:normal;font-size:11.28888893px;line-height:125%;font-family:sans-serif;letter-spacing:0px;word-spacing:0px;fill:#f9f9f9;fill-opacity:1;stroke:none;stroke-width:1px;stroke-linecap:butt;stroke-linejoin:miter;stroke-opacity:1"
         x="48.655766"
         y="64.322769"
         id="text3343"
         sodipodi:linespacing="125%"><tspan
           sodipodi:role="line"
           id="tspan3345"
           x="48.655766"
           y="64.322769"
           style="font-style:normal;font-variant:normal;font-weight:normal;font-stretch:normal;font-size:3.52777791px;font-family:'Uni Ila.Sundaram-07';-inkscape-font-specification:'Uni Ila.Sundaram-07';fill:#f9f9f9">முக்காணி</tspan></text>
      <text
         sodipodi:linespacing="125%"
         id="text3349"
         y="67.64711"
         x="29.506556"
         style="font-style:normal;font-weight:normal;font-size:11.28888893px;line-height:125%;font-family:sans-serif;letter-spacing:0px;word-spacing:0px;fill:#000000;fill-opacity:1;stroke:none;stroke-width:1px;stroke-linecap:butt;stroke-linejoin:miter;stroke-opacity:1"
         xml:space="preserve"><tspan
           style="font-style:normal;font-variant:normal;font-weight:normal;font-stretch:normal;font-size:1.76388896px;font-family:'American Typewriter';-inkscape-font-specification:'American Typewriter';fill:#ffffff"
           y="67.64711"
           x="29.506556"
           id="tspan3351"
           sodipodi:role="line">1. start with the raster image, resize, trace to vector.</tspan><tspan
           id="tspan3355"
           style="font-style:normal;font-variant:normal;font-weight:normal;font-stretch:normal;font-size:1.76388896px;font-family:'American Typewriter';-inkscape-font-specification:'American Typewriter';fill:#ffffff"
           y="69.851974"
           x="29.506556"
           sodipodi:role="line">2. use guidelines, boxes, simple geometries to edit.</tspan><tspan
           id="tspan3353"
           style="font-style:normal;font-variant:normal;font-weight:normal;font-stretch:normal;font-size:1.76388896px;font-family:'American Typewriter';-inkscape-font-specification:'American Typewriter';fill:#ffffff"
           y="72.056831"
           x="29.506556"
           sodipodi:role="line">3. use reduction process to remove unnecessary nodes.</tspan><tspan
           id="tspan3357"
           style="font-style:normal;font-variant:normal;font-weight:normal;font-stretch:normal;font-size:1.76388896px;font-family:'American Typewriter';-inkscape-font-specification:'American Typewriter';fill:#ffffff"
           y="74.261696"
           x="29.506556"
           sodipodi:role="line">4. use node tools to symmetrize and align with curvature.</tspan><tspan
           style="font-style:normal;font-variant:normal;font-weight:normal;font-stretch:normal;font-size:1.76388896px;font-family:'American Typewriter';-inkscape-font-specification:'American Typewriter';fill:#ffffff"
           y="76.466553"
           x="29.506556"
           sodipodi:role="line"
           id="tspan3375">5. use grids and snaps wherever possible.</tspan></text>
    </g>
  </g>
</svg>
