<?xml version="1.0" encoding="UTF-8" standalone="no"?>
<!-- Created with Inkscape (http://www.inkscape.org/) -->

<svg
   xmlns:dc="http://purl.org/dc/elements/1.1/"
   xmlns:cc="http://creativecommons.org/ns#"
   xmlns:rdf="http://www.w3.org/1999/02/22-rdf-syntax-ns#"
   xmlns:svg="http://www.w3.org/2000/svg"
   xmlns="http://www.w3.org/2000/svg"
   xmlns:sodipodi="http://sodipodi.sourceforge.net/DTD/sodipodi-0.dtd"
   xmlns:inkscape="http://www.inkscape.org/namespaces/inkscape"
   width="78.496033mm"
   height="51.325871mm"
   viewBox="0 0 78.496033 51.325871"
   version="1.1"
   id="svg4666"
   inkscape:version="0.91 r13725"
   sodipodi:docname="arai - அரை-v1.svg">
  <defs
     id="defs4660" />
  <sodipodi:namedview
     id="base"
     pagecolor="#ffffff"
     bordercolor="#666666"
     borderopacity="1.0"
     inkscape:pageopacity="0.0"
     inkscape:pageshadow="2"
     inkscape:zoom="2.8"
     inkscape:cx="195.71111"
     inkscape:cy="54.852978"
     inkscape:document-units="mm"
     inkscape:current-layer="layer1"
     showgrid="true"
     showguides="true"
     inkscape:guide-bbox="true"
     inkscape:measure-start="412.143,701.964"
     inkscape:measure-end="422.177,701.964"
     inkscape:snap-global="false"
     inkscape:window-width="1366"
     inkscape:window-height="705"
     inkscape:window-x="0"
     inkscape:window-y="30"
     inkscape:window-maximized="1"
     fit-margin-top="0"
     fit-margin-left="0"
     fit-margin-right="0"
     fit-margin-bottom="0"
     showborder="false">
    <sodipodi:guide
       position="57.931834,32.588117"
       orientation="0,1"
       id="guide4685"
       inkscape:locked="false" />
    <sodipodi:guide
       position="52.992945,34.855967"
       orientation="1,0"
       id="guide4691"
       inkscape:locked="false" />
    <sodipodi:guide
       position="78.39294,17.620258"
       orientation="1,0"
       id="guide4703"
       inkscape:locked="false" />
    <sodipodi:guide
       position="80.50961,0.082158685"
       orientation="0,1"
       id="guide3475" />
    <sodipodi:guide
       position="65.692943,22.508748"
       orientation="1,0"
       id="guide3371" />
    <inkscape:grid
       type="xygrid"
       id="grid3352"
       originx="-27.440386"
       originy="-186.1341" />
    <sodipodi:guide
       position="54.404056,27.951607"
       orientation="1,0"
       id="guide3483" />
    <sodipodi:guide
       position="76.93144,34.654387"
       orientation="1,0"
       id="guide3485" />
    <sodipodi:guide
       position="70.127864,15.654778"
       orientation="0,1"
       id="guide3495" />
  </sodipodi:namedview>
  <metadata
     id="metadata4663">
    <rdf:RDF>
      <cc:Work
         rdf:about="">
        <dc:format>image/svg+xml</dc:format>
        <dc:type
           rdf:resource="http://purl.org/dc/dcmitype/StillImage" />
        <dc:title></dc:title>
        <cc:license
           rdf:resource="http://creativecommons.org/publicdomain/zero/1.0/" />
      </cc:Work>
      <cc:License
         rdf:about="http://creativecommons.org/publicdomain/zero/1.0/">
        <cc:permits
           rdf:resource="http://creativecommons.org/ns#Reproduction" />
        <cc:permits
           rdf:resource="http://creativecommons.org/ns#Distribution" />
        <cc:permits
           rdf:resource="http://creativecommons.org/ns#DerivativeWorks" />
      </cc:License>
    </rdf:RDF>
  </metadata>
  <g
     inkscape:label="Layer 1"
     inkscape:groupmode="layer"
     id="layer1"
     transform="translate(-27.440387,-59.540024)">
    <rect
       style="opacity:1;fill:none;fill-opacity:1;stroke:#ff2a2a;stroke-width:0.14111114;stroke-linecap:round;stroke-linejoin:round;stroke-miterlimit:4;stroke-dasharray:0.28222224, 0.28222224;stroke-dashoffset:0;stroke-opacity:1"
       id="rect3350"
       width="25.384886"
       height="32.503315"
       x="80.48098"
       y="78.292023" />
    <g
       id="g3359"
       transform="translate(0,-1.6933333)">
      <rect
         y="61.303913"
         x="27.510942"
         height="16.96777"
         width="51.964855"
         id="rect3347"
         style="opacity:1;fill:#1a1a1a;fill-opacity:1;stroke:#ff2a2a;stroke-width:0.14111111;stroke-linecap:round;stroke-linejoin:round;stroke-miterlimit:4;stroke-dasharray:0.28222222, 0.28222222;stroke-dashoffset:0;stroke-opacity:1" />
      <text
         sodipodi:linespacing="125%"
         id="text3339"
         y="64.448685"
         x="28.661133"
         style="font-style:normal;font-weight:normal;font-size:9.63140392px;line-height:125%;font-family:sans-serif;letter-spacing:0px;word-spacing:0px;fill:#f9f9f9;fill-opacity:1;stroke:none;stroke-width:1px;stroke-linecap:butt;stroke-linejoin:miter;stroke-opacity:1"
         xml:space="preserve"><tspan
           style="font-style:normal;font-variant:normal;font-weight:normal;font-stretch:normal;font-size:3.00981379px;font-family:'American Typewriter';-inkscape-font-specification:'American Typewriter';fill:#f9f9f9"
           y="64.448685"
           x="28.661133"
           id="tspan3341"
           sodipodi:role="line">Glyph name :</tspan></text>
      <text
         xml:space="preserve"
         style="font-style:normal;font-weight:normal;font-size:11.28888893px;line-height:125%;font-family:sans-serif;letter-spacing:0px;word-spacing:0px;fill:#f9f9f9;fill-opacity:1;stroke:none;stroke-width:1px;stroke-linecap:butt;stroke-linejoin:miter;stroke-opacity:1"
         x="48.655766"
         y="64.322769"
         id="text3343"
         sodipodi:linespacing="125%"><tspan
           sodipodi:role="line"
           id="tspan3345"
           x="48.655766"
           y="64.322769"
           style="font-style:normal;font-variant:normal;font-weight:normal;font-stretch:normal;font-size:3.52777791px;font-family:'Uni Ila.Sundaram-07';-inkscape-font-specification:'Uni Ila.Sundaram-07';fill:#f9f9f9">அரை</tspan></text>
      <text
         sodipodi:linespacing="125%"
         id="text3349"
         y="67.64711"
         x="29.506556"
         style="font-style:normal;font-weight:normal;font-size:11.28888893px;line-height:125%;font-family:sans-serif;letter-spacing:0px;word-spacing:0px;fill:#000000;fill-opacity:1;stroke:none;stroke-width:1px;stroke-linecap:butt;stroke-linejoin:miter;stroke-opacity:1"
         xml:space="preserve"><tspan
           style="font-style:normal;font-variant:normal;font-weight:normal;font-stretch:normal;font-size:1.76388896px;font-family:'American Typewriter';-inkscape-font-specification:'American Typewriter';fill:#ffffff"
           y="67.64711"
           x="29.506556"
           id="tspan3351"
           sodipodi:role="line">1. start with the raster image, resize, trace to vector.</tspan><tspan
           id="tspan3355"
           style="font-style:normal;font-variant:normal;font-weight:normal;font-stretch:normal;font-size:1.76388896px;font-family:'American Typewriter';-inkscape-font-specification:'American Typewriter';fill:#ffffff"
           y="69.851974"
           x="29.506556"
           sodipodi:role="line">2. use guidelines, boxes, simple geometries to edit.</tspan><tspan
           id="tspan3353"
           style="font-style:normal;font-variant:normal;font-weight:normal;font-stretch:normal;font-size:1.76388896px;font-family:'American Typewriter';-inkscape-font-specification:'American Typewriter';fill:#ffffff"
           y="72.056831"
           x="29.506556"
           sodipodi:role="line">3. use reduction process to remove unnecessary nodes.</tspan><tspan
           id="tspan3357"
           style="font-style:normal;font-variant:normal;font-weight:normal;font-stretch:normal;font-size:1.76388896px;font-family:'American Typewriter';-inkscape-font-specification:'American Typewriter';fill:#ffffff"
           y="74.261696"
           x="29.506556"
           sodipodi:role="line">4. use node tools to symmetrize and align with curvature.</tspan><tspan
           style="font-style:normal;font-variant:normal;font-weight:normal;font-stretch:normal;font-size:1.76388896px;font-family:'American Typewriter';-inkscape-font-specification:'American Typewriter';fill:#ffffff"
           y="76.466553"
           x="29.506556"
           sodipodi:role="line"
           id="tspan3375">5. use grids and snaps wherever possible.</tspan></text>
    </g>
    <path
       style="fill:#000000"
       d="m 92.049456,110.45417 c 0,-6.80936 3.319973,-8.77747 6.524805,-12.317652 0.917899,-1.013947 1.859899,-1.992438 2.585569,-3.472521 0.97979,-1.998392 1.37815,-3.651504 1.47839,-5.095226 0.17274,-2.487824 -0.4858,-4.225406 -2.5328,-6.677216 -1.638737,-1.962807 -3.782507,-2.959809 -6.958352,-2.972421 -2.574103,-0.01022 -5.0882,1.35846 -6.999903,3.314312 -1.364716,1.396233 -2.337188,3.071961 -2.546272,4.939823 -0.328947,2.938661 0.615041,7.433954 3.885276,7.488958 1.524424,0.02564 3.231103,-1.352168 3.231103,-3.1366 0,-1.253825 -0.509648,-2.280325 -2.336296,-2.769774 l 0.832528,-1.479807 c 2.2284,0.747804 3.196068,2.057809 3.196068,4.245439 0,2.937218 -2.578134,4.771446 -4.917186,4.771446 -4.686167,0 -5.944897,-5.385198 -5.569391,-9.115861 0.225653,-2.241875 1.336079,-4.300675 3.226609,-6.293037 2.165811,-2.282471 5.019714,-3.539152 7.98304,-3.578062 3.285272,-0.04314 6.190503,1.189938 8.126216,3.335305 2.12293,2.352858 3.15516,4.993967 3.05559,7.926995 -0.0606,1.784639 -0.55544,3.679232 -1.34366,5.295288 -1.06806,2.189808 -2.62408,3.940244 -4.173361,5.482251 -2.991375,2.97733 -5.079622,4.52419 -5.079622,10.10965 z"
       id="path3571"
       inkscape:connector-curvature="0"
       sodipodi:nodetypes="csssssssssccssssssssscc" />
  </g>
</svg>
