<?xml version="1.0" encoding="UTF-8" standalone="no"?>
<!-- Created with Inkscape (http://www.inkscape.org/) -->

<svg
   xmlns:dc="http://purl.org/dc/elements/1.1/"
   xmlns:cc="http://creativecommons.org/ns#"
   xmlns:rdf="http://www.w3.org/1999/02/22-rdf-syntax-ns#"
   xmlns:svg="http://www.w3.org/2000/svg"
   xmlns="http://www.w3.org/2000/svg"
   xmlns:sodipodi="http://sodipodi.sourceforge.net/DTD/sodipodi-0.dtd"
   xmlns:inkscape="http://www.inkscape.org/namespaces/inkscape"
   width="78.496033mm"
   height="51.325871mm"
   viewBox="0 0 78.496033 51.325871"
   version="1.1"
   id="svg4666"
   inkscape:version="0.91 r13725"
   sodipodi:docname="kalam - கலம்.svg">
  <defs
     id="defs4660" />
  <sodipodi:namedview
     id="base"
     pagecolor="#ffffff"
     bordercolor="#666666"
     borderopacity="1.0"
     inkscape:pageopacity="0.0"
     inkscape:pageshadow="2"
     inkscape:zoom="2.8284272"
     inkscape:cx="197.95787"
     inkscape:cy="102.62652"
     inkscape:document-units="mm"
     inkscape:current-layer="layer1"
     showgrid="true"
     showguides="true"
     inkscape:guide-bbox="true"
     inkscape:measure-start="412.143,701.964"
     inkscape:measure-end="422.177,701.964"
     inkscape:snap-global="false"
     inkscape:window-width="1366"
     inkscape:window-height="705"
     inkscape:window-x="0"
     inkscape:window-y="30"
     inkscape:window-maximized="1"
     fit-margin-top="0"
     fit-margin-left="0"
     fit-margin-right="0"
     fit-margin-bottom="0"
     showborder="false">
    <sodipodi:guide
       position="57.931834,32.588117"
       orientation="0,1"
       id="guide4685"
       inkscape:locked="false" />
    <sodipodi:guide
       position="52.992945,34.855967"
       orientation="1,0"
       id="guide4691"
       inkscape:locked="false" />
    <sodipodi:guide
       position="78.39294,17.620258"
       orientation="1,0"
       id="guide4703"
       inkscape:locked="false" />
    <sodipodi:guide
       position="80.50961,0.082158685"
       orientation="0,1"
       id="guide3475" />
    <inkscape:grid
       type="xygrid"
       id="grid3352"
       originx="-27.440386"
       originy="-186.1341" />
    <sodipodi:guide
       position="75.76475,17.418668"
       orientation="0,1"
       id="guide4419" />
  </sodipodi:namedview>
  <metadata
     id="metadata4663">
    <rdf:RDF>
      <cc:Work
         rdf:about="">
        <dc:format>image/svg+xml</dc:format>
        <dc:type
           rdf:resource="http://purl.org/dc/dcmitype/StillImage" />
        <dc:title></dc:title>
        <cc:license
           rdf:resource="http://creativecommons.org/publicdomain/zero/1.0/" />
      </cc:Work>
      <cc:License
         rdf:about="http://creativecommons.org/publicdomain/zero/1.0/">
        <cc:permits
           rdf:resource="http://creativecommons.org/ns#Reproduction" />
        <cc:permits
           rdf:resource="http://creativecommons.org/ns#Distribution" />
        <cc:permits
           rdf:resource="http://creativecommons.org/ns#DerivativeWorks" />
      </cc:License>
    </rdf:RDF>
  </metadata>
  <g
     inkscape:label="Layer 1"
     inkscape:groupmode="layer"
     id="layer1"
     transform="translate(-27.440387,-59.540024)">
    <rect
       style="opacity:1;fill:none;fill-opacity:1;stroke:#ff2a2a;stroke-width:0.14111114;stroke-linecap:round;stroke-linejoin:round;stroke-miterlimit:4;stroke-dasharray:0.28222223, 0.28222223;stroke-dashoffset:0;stroke-opacity:1"
       id="rect3350"
       width="25.384886"
       height="32.432041"
       x="80.48098"
       y="78.363297" />
    <g
       id="g3359"
       transform="translate(0,-1.6933333)">
      <rect
         y="61.303913"
         x="27.510942"
         height="16.96777"
         width="51.964855"
         id="rect3347"
         style="opacity:1;fill:#1a1a1a;fill-opacity:1;stroke:#ff2a2a;stroke-width:0.14111111;stroke-linecap:round;stroke-linejoin:round;stroke-miterlimit:4;stroke-dasharray:0.28222222, 0.28222222;stroke-dashoffset:0;stroke-opacity:1" />
      <text
         sodipodi:linespacing="125%"
         id="text3339"
         y="64.448685"
         x="28.661133"
         style="font-style:normal;font-weight:normal;font-size:9.63140392px;line-height:125%;font-family:sans-serif;letter-spacing:0px;word-spacing:0px;fill:#f9f9f9;fill-opacity:1;stroke:none;stroke-width:1px;stroke-linecap:butt;stroke-linejoin:miter;stroke-opacity:1"
         xml:space="preserve"><tspan
           style="font-style:normal;font-variant:normal;font-weight:normal;font-stretch:normal;font-size:3.00981379px;font-family:'American Typewriter';-inkscape-font-specification:'American Typewriter';fill:#f9f9f9"
           y="64.448685"
           x="28.661133"
           id="tspan3341"
           sodipodi:role="line">Glyph name :</tspan></text>
      <text
         xml:space="preserve"
         style="font-style:normal;font-weight:normal;font-size:11.28888893px;line-height:125%;font-family:sans-serif;letter-spacing:0px;word-spacing:0px;fill:#f9f9f9;fill-opacity:1;stroke:none;stroke-width:1px;stroke-linecap:butt;stroke-linejoin:miter;stroke-opacity:1"
         x="48.655766"
         y="64.322769"
         id="text3343"
         sodipodi:linespacing="125%"><tspan
           sodipodi:role="line"
           id="tspan3345"
           x="48.655766"
           y="64.322769"
           style="font-style:normal;font-variant:normal;font-weight:normal;font-stretch:normal;font-size:3.52777791px;font-family:'Uni Ila.Sundaram-07';-inkscape-font-specification:'Uni Ila.Sundaram-07';fill:#f9f9f9">கலம்</tspan></text>
      <text
         sodipodi:linespacing="125%"
         id="text3349"
         y="67.64711"
         x="29.506556"
         style="font-style:normal;font-weight:normal;font-size:11.28888893px;line-height:125%;font-family:sans-serif;letter-spacing:0px;word-spacing:0px;fill:#000000;fill-opacity:1;stroke:none;stroke-width:1px;stroke-linecap:butt;stroke-linejoin:miter;stroke-opacity:1"
         xml:space="preserve"><tspan
           style="font-style:normal;font-variant:normal;font-weight:normal;font-stretch:normal;font-size:1.76388896px;font-family:'American Typewriter';-inkscape-font-specification:'American Typewriter';fill:#ffffff"
           y="67.64711"
           x="29.506556"
           id="tspan3351"
           sodipodi:role="line">1. start with the raster image, resize, trace to vector.</tspan><tspan
           id="tspan3355"
           style="font-style:normal;font-variant:normal;font-weight:normal;font-stretch:normal;font-size:1.76388896px;font-family:'American Typewriter';-inkscape-font-specification:'American Typewriter';fill:#ffffff"
           y="69.851974"
           x="29.506556"
           sodipodi:role="line">2. use guidelines, boxes, simple geometries to edit.</tspan><tspan
           id="tspan3353"
           style="font-style:normal;font-variant:normal;font-weight:normal;font-stretch:normal;font-size:1.76388896px;font-family:'American Typewriter';-inkscape-font-specification:'American Typewriter';fill:#ffffff"
           y="72.056831"
           x="29.506556"
           sodipodi:role="line">3. use reduction process to remove unnecessary nodes.</tspan><tspan
           id="tspan3357"
           style="font-style:normal;font-variant:normal;font-weight:normal;font-stretch:normal;font-size:1.76388896px;font-family:'American Typewriter';-inkscape-font-specification:'American Typewriter';fill:#ffffff"
           y="74.261696"
           x="29.506556"
           sodipodi:role="line">4. use node tools to symmetrize and align with curvature.</tspan><tspan
           style="font-style:normal;font-variant:normal;font-weight:normal;font-stretch:normal;font-size:1.76388896px;font-family:'American Typewriter';-inkscape-font-specification:'American Typewriter';fill:#ffffff"
           y="76.466553"
           x="29.506556"
           sodipodi:role="line"
           id="tspan3375">5. use grids and snaps wherever possible.</tspan></text>
    </g>
    <path
       style="fill:#000000"
       d="m 80.53755,98.932127 c 0,-2.724763 1.599129,-4.218689 2.72216,-4.849721 l -0.0051,-8.467253 11.854678,-0.0011 -9.15e-4,1.131093 -4.797693,-0.0023 0.0037,6.706113 6.008867,-0.01127 c 2.953074,0 3.402711,2.068811 3.402711,2.068811 0,0 0.670672,-2.052055 2.368692,-2.052055 l 3.74028,-0.0039 -0.001,1.136054 -0.006,8.177331 -1.21558,0.001 0.0113,-8.058694 -2.49098,0.0023 c -1.73955,0 -1.70598,2.182603 -1.72999,3.322464 l -0.0421,4.70255 -1.36068,-0.003 -0.01124,-4.714855 -0.0028,-1.394757 c -0.0019,-0.937203 -0.610363,-2.047457 -2.264818,-2.047457 -0.454373,0 -1.527927,0.408531 -1.194041,1.209008 0.504626,1.212729 1.523841,3.126169 1.523841,4.686831 0,1.56066 -1.297562,2.55105 -2.782713,2.55105 -1.837068,-0.0802 -2.851503,-1.12209 -2.851503,-2.56328 0,-1.441189 0.957711,-3.18074 1.627358,-4.677919 0.63121,-1.08587 -0.728996,-1.248553 -1.320634,-1.196204 -0.771226,0.06824 -1.420964,0.566425 -1.420964,1.837356 0,6.092587 -1.855478,7.089367 -4.807751,7.125307 -3.818306,0 -4.866139,-2.71331 -4.957128,-4.613722 z m 8.364159,-4.004262 -4.239184,0.01489 c -1.350213,0.0047 -2.770471,1.720137 -2.735193,3.972808 0,2.274437 1.507584,3.323187 3.596556,3.405037 3.881622,0 3.389628,-4.526063 3.377821,-7.392735 z m 6.917312,4.924822 c 0,-1.017896 -0.534242,-2.182145 -1.564793,-3.555264 -0.986,1.402288 -1.562869,2.544353 -1.562869,3.534264 0,0.986713 0.345754,1.903963 1.564802,1.903963 1.219048,0 1.56286,-0.9058 1.56286,-1.882963 z m -6.937406,-6.349485 0.01917,-6.758331 -4.223998,-0.0015 c 0,0 -0.02661,1.230552 -0.01886,3.872762 l 0.0089,2.880161 z"
       id="path4411"
       inkscape:connector-curvature="0"
       sodipodi:nodetypes="ccccccccccccccccccccssczczcacccccccccscszsccsccc" />
  </g>
</svg>
