<?xml version="1.0" encoding="UTF-8" standalone="no"?>
<!-- Created with Inkscape (http://www.inkscape.org/) -->

<svg
   xmlns:dc="http://purl.org/dc/elements/1.1/"
   xmlns:cc="http://creativecommons.org/ns#"
   xmlns:rdf="http://www.w3.org/1999/02/22-rdf-syntax-ns#"
   xmlns:svg="http://www.w3.org/2000/svg"
   xmlns="http://www.w3.org/2000/svg"
   xmlns:sodipodi="http://sodipodi.sourceforge.net/DTD/sodipodi-0.dtd"
   xmlns:inkscape="http://www.inkscape.org/namespaces/inkscape"
   width="78.496033mm"
   height="51.325871mm"
   viewBox="0 0 78.496033 51.325871"
   version="1.1"
   id="svg4666"
   inkscape:version="0.91 r13725"
   sodipodi:docname="pati - படி.svg">
  <defs
     id="defs4660" />
  <sodipodi:namedview
     id="base"
     pagecolor="#ffffff"
     bordercolor="#666666"
     borderopacity="1.0"
     inkscape:pageopacity="0.0"
     inkscape:pageshadow="2"
     inkscape:zoom="1.9674921"
     inkscape:cx="99.49096"
     inkscape:cy="87.013667"
     inkscape:document-units="mm"
     inkscape:current-layer="g3359"
     showgrid="true"
     showguides="true"
     inkscape:guide-bbox="true"
     inkscape:measure-start="412.143,701.964"
     inkscape:measure-end="422.177,701.964"
     inkscape:snap-global="false"
     inkscape:window-width="1366"
     inkscape:window-height="705"
     inkscape:window-x="0"
     inkscape:window-y="30"
     inkscape:window-maximized="1"
     showborder="false"
     fit-margin-top="0"
     fit-margin-left="0"
     fit-margin-right="0"
     fit-margin-bottom="0">
    <sodipodi:guide
       position="57.931834,32.588117"
       orientation="0,1"
       id="guide4685"
       inkscape:locked="false" />
    <sodipodi:guide
       position="52.992945,34.855967"
       orientation="1,0"
       id="guide4691"
       inkscape:locked="false" />
    <sodipodi:guide
       position="78.39294,17.620258"
       orientation="1,0"
       id="guide4703"
       inkscape:locked="false" />
    <sodipodi:guide
       position="80.50961,0.082158685"
       orientation="0,1"
       id="guide3475" />
    <sodipodi:guide
       position="65.692943,22.508748"
       orientation="1,0"
       id="guide3371" />
    <sodipodi:guide
       position="84.10009,16.278018"
       orientation="0,1"
       id="guide3373" />
    <inkscape:grid
       type="xygrid"
       id="grid3352"
       originx="-27.440386"
       originy="-186.1341" />
  </sodipodi:namedview>
  <metadata
     id="metadata4663">
    <rdf:RDF>
      <cc:Work
         rdf:about="">
        <dc:format>image/svg+xml</dc:format>
        <dc:type
           rdf:resource="http://purl.org/dc/dcmitype/StillImage" />
        <dc:title></dc:title>
        <cc:license
           rdf:resource="http://creativecommons.org/publicdomain/zero/1.0/" />
      </cc:Work>
      <cc:License
         rdf:about="http://creativecommons.org/publicdomain/zero/1.0/">
        <cc:permits
           rdf:resource="http://creativecommons.org/ns#Reproduction" />
        <cc:permits
           rdf:resource="http://creativecommons.org/ns#Distribution" />
        <cc:permits
           rdf:resource="http://creativecommons.org/ns#DerivativeWorks" />
      </cc:License>
    </rdf:RDF>
  </metadata>
  <g
     inkscape:label="Layer 1"
     inkscape:groupmode="layer"
     id="layer1"
     transform="translate(-27.440387,-59.540024)">
    <rect
       style="opacity:1;fill:none;fill-opacity:1;stroke:#ff2a2a;stroke-width:0.14111114;stroke-linecap:round;stroke-linejoin:round;stroke-miterlimit:4;stroke-dasharray:0.28222223, 0.28222223;stroke-dashoffset:0;stroke-opacity:1"
       id="rect3350"
       width="25.384886"
       height="32.432041"
       x="80.48098"
       y="78.363297" />
    <g
       id="g3359"
       transform="translate(0,-1.6933333)">
      <rect
         y="61.303913"
         x="27.510942"
         height="16.96777"
         width="51.964855"
         id="rect3347"
         style="opacity:1;fill:#1a1a1a;fill-opacity:1;stroke:#ff2a2a;stroke-width:0.14111111;stroke-linecap:round;stroke-linejoin:round;stroke-miterlimit:4;stroke-dasharray:0.28222222, 0.28222222;stroke-dashoffset:0;stroke-opacity:1" />
      <text
         sodipodi:linespacing="125%"
         id="text3339"
         y="64.448685"
         x="28.661133"
         style="font-style:normal;font-weight:normal;font-size:9.63140392px;line-height:125%;font-family:sans-serif;letter-spacing:0px;word-spacing:0px;fill:#f9f9f9;fill-opacity:1;stroke:none;stroke-width:1px;stroke-linecap:butt;stroke-linejoin:miter;stroke-opacity:1"
         xml:space="preserve"><tspan
           style="font-style:normal;font-variant:normal;font-weight:normal;font-stretch:normal;font-size:3.00981379px;font-family:'American Typewriter';-inkscape-font-specification:'American Typewriter';fill:#f9f9f9"
           y="64.448685"
           x="28.661133"
           id="tspan3341"
           sodipodi:role="line">Glyph name :</tspan></text>
      <text
         xml:space="preserve"
         style="font-style:normal;font-weight:normal;font-size:11.28888893px;line-height:125%;font-family:sans-serif;letter-spacing:0px;word-spacing:0px;fill:#f9f9f9;fill-opacity:1;stroke:none;stroke-width:1px;stroke-linecap:butt;stroke-linejoin:miter;stroke-opacity:1"
         x="48.655766"
         y="64.322769"
         id="text3343"
         sodipodi:linespacing="125%"><tspan
           sodipodi:role="line"
           id="tspan3345"
           x="48.655766"
           y="64.322769"
           style="font-style:normal;font-variant:normal;font-weight:normal;font-stretch:normal;font-size:3.52777791px;font-family:'Uni Ila.Sundaram-07';-inkscape-font-specification:'Uni Ila.Sundaram-07';fill:#f9f9f9">படி</tspan></text>
      <text
         sodipodi:linespacing="125%"
         id="text3349"
         y="67.64711"
         x="29.506556"
         style="font-style:normal;font-weight:normal;font-size:11.28888893px;line-height:125%;font-family:sans-serif;letter-spacing:0px;word-spacing:0px;fill:#000000;fill-opacity:1;stroke:none;stroke-width:1px;stroke-linecap:butt;stroke-linejoin:miter;stroke-opacity:1"
         xml:space="preserve"><tspan
           style="font-style:normal;font-variant:normal;font-weight:normal;font-stretch:normal;font-size:1.76388896px;font-family:'American Typewriter';-inkscape-font-specification:'American Typewriter';fill:#ffffff"
           y="67.64711"
           x="29.506556"
           id="tspan3351"
           sodipodi:role="line">1. start with the raster image, resize, trace to vector.</tspan><tspan
           id="tspan3355"
           style="font-style:normal;font-variant:normal;font-weight:normal;font-stretch:normal;font-size:1.76388896px;font-family:'American Typewriter';-inkscape-font-specification:'American Typewriter';fill:#ffffff"
           y="69.851974"
           x="29.506556"
           sodipodi:role="line">2. use guidelines, boxes, simple geometries to edit.</tspan><tspan
           id="tspan3353"
           style="font-style:normal;font-variant:normal;font-weight:normal;font-stretch:normal;font-size:1.76388896px;font-family:'American Typewriter';-inkscape-font-specification:'American Typewriter';fill:#ffffff"
           y="72.056831"
           x="29.506556"
           sodipodi:role="line">3. use reduction process to remove unnecessary nodes.</tspan><tspan
           id="tspan3357"
           style="font-style:normal;font-variant:normal;font-weight:normal;font-stretch:normal;font-size:1.76388896px;font-family:'American Typewriter';-inkscape-font-specification:'American Typewriter';fill:#ffffff"
           y="74.261696"
           x="29.506556"
           sodipodi:role="line">4. use node tools to symmetrize and align with curvature.</tspan><tspan
           style="font-style:normal;font-variant:normal;font-weight:normal;font-stretch:normal;font-size:1.76388896px;font-family:'American Typewriter';-inkscape-font-specification:'American Typewriter';fill:#ffffff"
           y="76.466553"
           x="29.506556"
           sodipodi:role="line"
           id="tspan3375">5. use grids and snaps wherever possible.</tspan></text>
      <path
         style="color:#000000;font-style:normal;font-variant:normal;font-weight:normal;font-stretch:normal;font-size:medium;line-height:normal;font-family:sans-serif;text-indent:0;text-align:start;text-decoration:none;text-decoration-line:none;text-decoration-style:solid;text-decoration-color:#000000;letter-spacing:normal;word-spacing:normal;text-transform:none;direction:ltr;block-progression:tb;writing-mode:lr-tb;baseline-shift:baseline;text-anchor:start;white-space:normal;clip-rule:nonzero;display:inline;overflow:visible;visibility:visible;opacity:1;isolation:auto;mix-blend-mode:normal;color-interpolation:sRGB;color-interpolation-filters:linearRGB;solid-color:#000000;solid-opacity:1;fill:#000000;fill-opacity:1;fill-rule:evenodd;stroke:none;stroke-width:1.41111112;stroke-linecap:butt;stroke-linejoin:round;stroke-miterlimit:4;stroke-dasharray:none;stroke-dashoffset:0;stroke-opacity:1;color-rendering:auto;image-rendering:auto;shape-rendering:auto;text-rendering:auto;enable-background:accumulate"
         d="m 80.483064,90.466976 c 0,0 -0.02921,4.614119 -0.02921,7.063802 0,2.902542 2.075913,4.548562 4.239392,4.538172 1.777258,0 2.452692,-0.48829 3.280932,-1.2722 0.814118,0.81412 1.520639,1.23289 2.487637,1.23086 3.049162,0 2.225886,-4.03732 4.081653,-4.031035 0.61074,0.04165 1.064395,0.306939 1.064395,0.913914 -0.03289,0.934289 -0.864523,1.305531 -1.489382,1.757831 l -0.01654,0 0,1.41 11.791049,0 0,-1.41 -9.543744,0 c 0.462362,-0.53077 0.761018,-1.209639 0.65705,-1.952959 -0.241218,-1.280431 -1.223975,-2.094388 -2.43527,-2.129344 -0.915975,-0.01755 -1.62722,0.52801 -2.04115,1.125028 -0.825367,1.259705 -0.660216,2.906555 -2.185568,2.906555 -1.626591,0 -1.46089,-2.072983 -1.449169,-3.10253 l 0,-7.030455 -1.412212,0 0,7.028254 c 0.109212,1.79837 -0.938011,3.086991 -2.779231,3.145521 -1.770408,-0.1079 -2.809861,-1.411974 -2.839858,-3.127612 0,-2.438072 0.03142,-7.056086 0.03142,-7.056086 l -1.412214,-0.0077 z"
         id="path4166"
         inkscape:connector-curvature="0"
         sodipodi:nodetypes="cccccccccccccccccccccccccc" />
    </g>
  </g>
</svg>
