<?xml version="1.0" encoding="UTF-8" standalone="no"?>
<!-- Created with Inkscape (http://www.inkscape.org/) -->

<svg
   xmlns:dc="http://purl.org/dc/elements/1.1/"
   xmlns:cc="http://creativecommons.org/ns#"
   xmlns:rdf="http://www.w3.org/1999/02/22-rdf-syntax-ns#"
   xmlns:svg="http://www.w3.org/2000/svg"
   xmlns="http://www.w3.org/2000/svg"
   xmlns:sodipodi="http://sodipodi.sourceforge.net/DTD/sodipodi-0.dtd"
   xmlns:inkscape="http://www.inkscape.org/namespaces/inkscape"
   width="210mm"
   height="297mm"
   viewBox="0 0 210 297"
   version="1.1"
   id="svg4666"
   inkscape:version="0.91 r13725"
   sodipodi:docname="uri - உரி.svg">
  <defs
     id="defs4660" />
  <sodipodi:namedview
     id="base"
     pagecolor="#ffffff"
     bordercolor="#666666"
     borderopacity="1.0"
     inkscape:pageopacity="0.0"
     inkscape:pageshadow="2"
     inkscape:zoom="2.8"
     inkscape:cx="405.1982"
     inkscape:cy="737.55288"
     inkscape:document-units="mm"
     inkscape:current-layer="layer1"
     showgrid="true"
     showguides="true"
     inkscape:guide-bbox="true"
     inkscape:measure-start="412.143,701.964"
     inkscape:measure-end="422.177,701.964"
     inkscape:snap-global="false"
     inkscape:window-width="1366"
     inkscape:window-height="705"
     inkscape:window-x="0"
     inkscape:window-y="30"
     inkscape:window-maximized="1">
    <sodipodi:guide
       position="85.372223,218.72223"
       orientation="0,1"
       id="guide4685"
       inkscape:locked="false" />
    <sodipodi:guide
       position="80.433334,220.99008"
       orientation="1,0"
       id="guide4691"
       inkscape:locked="false" />
    <sodipodi:guide
       position="105.83333,203.75437"
       orientation="1,0"
       id="guide4703"
       inkscape:locked="false" />
    <sodipodi:guide
       position="107.95,186.21627"
       orientation="0,1"
       id="guide3475" />
    <sodipodi:guide
       position="93.133333,208.64286"
       orientation="1,0"
       id="guide3371" />
    <sodipodi:guide
       position="111.54048,202.41213"
       orientation="0,1"
       id="guide3373" />
    <inkscape:grid
       type="xygrid"
       id="grid3352" />
  </sodipodi:namedview>
  <metadata
     id="metadata4663">
    <rdf:RDF>
      <cc:Work
         rdf:about="">
        <dc:format>image/svg+xml</dc:format>
        <dc:type
           rdf:resource="http://purl.org/dc/dcmitype/StillImage" />
        <dc:title />
        <cc:license
           rdf:resource="http://creativecommons.org/publicdomain/zero/1.0/" />
      </cc:Work>
      <cc:License
         rdf:about="http://creativecommons.org/publicdomain/zero/1.0/">
        <cc:permits
           rdf:resource="http://creativecommons.org/ns#Reproduction" />
        <cc:permits
           rdf:resource="http://creativecommons.org/ns#Distribution" />
        <cc:permits
           rdf:resource="http://creativecommons.org/ns#DerivativeWorks" />
      </cc:License>
    </rdf:RDF>
  </metadata>
  <g
     inkscape:label="Layer 1"
     inkscape:groupmode="layer"
     id="layer1">
    <rect
       style="opacity:1;fill:none;fill-opacity:1;stroke:#ff2a2a;stroke-width:0.14111114;stroke-linecap:round;stroke-linejoin:round;stroke-miterlimit:4;stroke-dasharray:0.28222223, 0.28222223;stroke-dashoffset:0;stroke-opacity:1"
       id="rect3350"
       width="25.384886"
       height="32.432041"
       x="80.48098"
       y="78.363297" />
    <g
       id="g3359"
       transform="translate(0,-1.6933333)">
      <rect
         y="61.303913"
         x="27.510942"
         height="16.96777"
         width="51.964855"
         id="rect3347"
         style="opacity:1;fill:#1a1a1a;fill-opacity:1;stroke:#ff2a2a;stroke-width:0.14111111;stroke-linecap:round;stroke-linejoin:round;stroke-miterlimit:4;stroke-dasharray:0.28222222, 0.28222222;stroke-dashoffset:0;stroke-opacity:1" />
      <text
         sodipodi:linespacing="125%"
         id="text3339"
         y="64.448685"
         x="28.661133"
         style="font-style:normal;font-weight:normal;font-size:9.63140392px;line-height:125%;font-family:sans-serif;letter-spacing:0px;word-spacing:0px;fill:#f9f9f9;fill-opacity:1;stroke:none;stroke-width:1px;stroke-linecap:butt;stroke-linejoin:miter;stroke-opacity:1"
         xml:space="preserve"><tspan
           style="font-style:normal;font-variant:normal;font-weight:normal;font-stretch:normal;font-size:3.00981379px;font-family:'American Typewriter';-inkscape-font-specification:'American Typewriter';fill:#f9f9f9"
           y="64.448685"
           x="28.661133"
           id="tspan3341"
           sodipodi:role="line">Glyph name :</tspan></text>
      <text
         xml:space="preserve"
         style="font-style:normal;font-weight:normal;font-size:11.28888893px;line-height:125%;font-family:sans-serif;letter-spacing:0px;word-spacing:0px;fill:#f9f9f9;fill-opacity:1;stroke:none;stroke-width:1px;stroke-linecap:butt;stroke-linejoin:miter;stroke-opacity:1"
         x="48.655766"
         y="64.322769"
         id="text3343"
         sodipodi:linespacing="125%"><tspan
           sodipodi:role="line"
           id="tspan3345"
           x="48.655766"
           y="64.322769"
           style="font-style:normal;font-variant:normal;font-weight:normal;font-stretch:normal;font-size:3.52777791px;font-family:'Uni Ila.Sundaram-07';-inkscape-font-specification:'Uni Ila.Sundaram-07';fill:#f9f9f9">உரி</tspan></text>
      <text
         sodipodi:linespacing="125%"
         id="text3349"
         y="67.64711"
         x="29.506556"
         style="font-style:normal;font-weight:normal;font-size:11.28888893px;line-height:125%;font-family:sans-serif;letter-spacing:0px;word-spacing:0px;fill:#000000;fill-opacity:1;stroke:none;stroke-width:1px;stroke-linecap:butt;stroke-linejoin:miter;stroke-opacity:1"
         xml:space="preserve"><tspan
           style="font-style:normal;font-variant:normal;font-weight:normal;font-stretch:normal;font-size:1.76388896px;font-family:'American Typewriter';-inkscape-font-specification:'American Typewriter';fill:#ffffff"
           y="67.64711"
           x="29.506556"
           id="tspan3351"
           sodipodi:role="line">1. start with the raster image, resize, trace to vector.</tspan><tspan
           id="tspan3355"
           style="font-style:normal;font-variant:normal;font-weight:normal;font-stretch:normal;font-size:1.76388896px;font-family:'American Typewriter';-inkscape-font-specification:'American Typewriter';fill:#ffffff"
           y="69.851974"
           x="29.506556"
           sodipodi:role="line">2. use guidelines, boxes, simple geometries to edit.</tspan><tspan
           id="tspan3353"
           style="font-style:normal;font-variant:normal;font-weight:normal;font-stretch:normal;font-size:1.76388896px;font-family:'American Typewriter';-inkscape-font-specification:'American Typewriter';fill:#ffffff"
           y="72.056831"
           x="29.506556"
           sodipodi:role="line">3. use reduction process to remove unnecessary nodes.</tspan><tspan
           id="tspan3357"
           style="font-style:normal;font-variant:normal;font-weight:normal;font-stretch:normal;font-size:1.76388896px;font-family:'American Typewriter';-inkscape-font-specification:'American Typewriter';fill:#ffffff"
           y="74.261696"
           x="29.506556"
           sodipodi:role="line">4. use node tools to symmetrize and align with curvature.</tspan><tspan
           style="font-style:normal;font-variant:normal;font-weight:normal;font-stretch:normal;font-size:1.76388896px;font-family:'American Typewriter';-inkscape-font-specification:'American Typewriter';fill:#ffffff"
           y="76.466553"
           x="29.506556"
           sodipodi:role="line"
           id="tspan3375">5. use grids and snaps wherever possible.</tspan></text>
    </g>
    <g
       id="g3386"
       transform="matrix(0.14270316,0,0,0.14270316,51.537182,71.825283)">
      <path
         style="fill:#000000"
         d="m 359.69556,113.28748 c -12.91368,0 -19.99059,9.40854 -19.99059,18.53278 l -0.0781,10.94656 0.13449,5.76396 c -13.22715,0.001 -26.63752,0.004 -26.80235,0.002 -0.002,0.21999 -0.003,5.54899 0,6.93975 -1.88447,-3.22044 -4.98044,-6.6816 -10.90533,-6.6816 -10.21193,0 -16.55417,7.39005 -16.62592,17.65202 l -0.21693,30.692 -21.66905,0.039 c 11.21924,-12.91313 9.2397,-54.02338 -27.35337,-54.02338 -19.52629,0 -31.44709,12.30764 -33.5512,28.6181 0,25.34782 12.49812,33.71608 28.07359,33.71608 7.32788,0 16.72353,-6.12338 16.72353,-16.50878 0,-9.76954 -6.951,-16.23543 -16.72353,-16.23543 -14.04739,0 -19.39967,14.69593 -13.25258,23.78478 -5.0724,-4.24132 -7.76233,-16.85686 -6.70547,-24.87814 1.6573,-12.08784 12.01715,-21.14468 25.45953,-21.14468 14.04163,0 22.85057,8.87544 24.7523,21.15337 1.38198,9.20599 -0.82571,21.35798 -5.59909,26.7416 -1.28851,1.56644 -0.84508,4.61061 -0.90679,7.21527 0.27641,-0.002 18.89396,-0.001 30.69355,-0.002 l 0,0.002 1.24521,-0.002 c 1.5126,-1.6e-4 5.43659,2.3e-4 5.89413,0 5e-4,-0.45722 0.002,-3.47306 0.002,-7.01134 l 0.2061,-32.00229 c 0,-6.64024 4.02003,-11.40212 9.34991,-11.40212 6.72409,0 11.13312,4.53119 11.13312,11.29148 0.002,0.15428 -0.0281,37.2448 -0.0564,39.02665 1.48298,-10e-4 6.15656,-0.002 7.01569,-0.002 -0.002,-1.47385 -0.002,-45.87399 0,-50.03394 0.70962,-0.004 18.279,0.0112 19.80836,0.0152 0.001,2.04635 0.002,46.87876 -0.002,49.94283 l 6.45383,0.0478 c -0.003,-2.45338 -0.004,-47.80253 -0.004,-50.00791 3.19262,-0.008 16.04804,-0.002 16.22242,-0.002 -10e-4,-0.26643 -9.5e-4,-6.65285 0,-6.94192 -0.0942,9.1e-4 -8.94721,-9.9e-4 -15.76252,0 l -0.0434,-16.60205 c 0,-5.55889 4.38688,-11.51461 13.08337,-11.64726 8.87953,0 14.1613,5.54048 14.20926,14.10296 l 0,70.82285 6.99182,0 -0.002,-70.9183 c 0,-12.28869 -9.85898,-21.00151 -21.20108,-21.00151 z m -128.78734,65.00683 c 5.7442,-7e-5 10.39993,4.65567 10.39988,10.39987 6e-5,5.74419 -4.65568,10.40211 -10.39988,10.40204 -5.7442,7e-5 -10.39994,-4.65785 -10.39987,-10.40204 -7e-5,-5.7442 4.65568,-10.39994 10.39987,-10.39987 z"
         id="path3447"
         inkscape:connector-curvature="0"
         sodipodi:nodetypes="scccccscccscsssccscccccccccscccccccccccccscccsccccc" />
    </g>
  </g>
</svg>
